0000.000 (0) Opened log file at time: Sun, 07 Apr 2019 05:26:17 +0000 on http://www.dharmaelearning.com
0000.003 (0) UpdraftPlus WordPress backup plugin (http://updraftplus.com): 1.9.63 WP: 4.0.1 PHP: 5.6.40 (Linux inli.vimalakirti.xyz 3.10.0-714.10.2.lve1.5.9.el7.x86_64 #1 SMP Thu Jan 11 14:17:06 EST 2018 x86_64) MySQL:  Server: Apache/2.4.39 (cPanel) OpenSSL/1.0.2r mod_bwlimited/1.4 safe_mode: 0 max_execution_time: 900 memory_limit: 500M (used: 63.4M | 64.8M) multisite: N mcrypt: Y LANG:  ZipArchive::addFile: N
0000.038 (0) Free space on disk containing Updraft's temporary directory: 21522 Mb
0000.043 (0) Tasks: Backup files:  (schedule: weekly) Backup DB: 1 (schedule: every4hours)
0000.046 (0) Processed schedules. Tasks now: Backup files:  Backup DB: 1
0000.050 (0) Requesting semaphore lock (d)
0000.053 (0) Semaphore lock (d) failed (line 41)
0000.055 (0) Failed to gain semaphore lock (d) - another backup of this type is apparently already active - aborting (if this is wrong - i.e. if the other backup crashed without removing the lock, then another can be started after 3 minutes)
