0000.008 (0) Opened log file at time: Tue, 30 May 2017 05:24:57 +0000 on http://dharma-elearning.net
0000.022 (0) UpdraftPlus WordPress backup plugin (http://updraftplus.com): 1.9.63 WP: 4.0.1 PHP: 5.5.30 (Linux inli.vimalakirti.xyz 3.10.0-327.3.1.el7.x86_64 #1 SMP Wed Dec 9 14:09:15 UTC 2015 x86_64) MySQL: 5.5.54-cll Server: Apache/2.4.18 (Unix) OpenSSL/1.0.1e-fips mod_bwlimited/1.4 safe_mode: 0 max_execution_time: 900 memory_limit: 500M (used: 51.4M | 52.5M) multisite: N mcrypt: Y LANG:  ZipArchive::addFile: N
0000.532 (0) Free space on disk containing Updraft's temporary directory: 27936.4 Mb
0000.558 (0) Tasks: Backup files:  (schedule: twicedaily) Backup DB: 1 (schedule: every4hours)
0000.583 (0) Processed schedules. Tasks now: Backup files:  Backup DB: 1
0000.605 (0) Requesting semaphore lock (d)
0000.611 (0) Semaphore lock (d) failed (line 41)
0000.628 (0) Failed to gain semaphore lock (d) - another backup of this type is apparently already active - aborting (if this is wrong - i.e. if the other backup crashed without removing the lock, then another can be started after 3 minutes)
