0000.000 (0) Opened log file at time: Wed, 05 Apr 2017 02:22:45 +0000 on https://dharma-elearning.net
0000.004 (0) UpdraftPlus WordPress backup plugin (http://updraftplus.com): 1.9.63 WP: 4.0.1 PHP: 5.5.30 (Linux inli.vimalakirti.xyz 3.10.0-327.3.1.el7.x86_64 #1 SMP Wed Dec 9 14:09:15 UTC 2015 x86_64) MySQL: 5.5.54-cll Server: Apache/2.4.18 (Unix) OpenSSL/1.0.1e-fips mod_bwlimited/1.4 safe_mode: 0 max_execution_time: 900 memory_limit: 500M (used: 51.5M | 52.5M) multisite: N mcrypt: Y LANG:  ZipArchive::addFile: N
0000.110 (0) Free space on disk containing Updraft's temporary directory: 29554.4 Mb
0000.114 (0) Tasks: Backup files: 1 (schedule: twicedaily) Backup DB:  (schedule: every4hours)
0000.117 (0) Processed schedules. Tasks now: Backup files: 1 Backup DB: 
0000.121 (0) Requesting semaphore lock (f)
0000.123 (0) Semaphore lock (f) failed (line 41)
0000.126 (0) Failed to gain semaphore lock (f) - another backup of this type is apparently already active - aborting (if this is wrong - i.e. if the other backup crashed without removing the lock, then another can be started after 3 minutes)
