0000.000 (0) Opened log file at time: Fri, 15 Mar 2019 21:28:53 +0000 on http://dharmaelearning.com
0000.004 (0) UpdraftPlus WordPress backup plugin (http://updraftplus.com): 1.9.63 WP: 4.0.1 PHP: 5.6.40 (Linux inli.vimalakirti.xyz 3.10.0-714.10.2.lve1.5.9.el7.x86_64 #1 SMP Thu Jan 11 14:17:06 EST 2018 x86_64) MySQL:  Server: Apache/2.4.38 (cPanel) OpenSSL/1.0.2q mod_bwlimited/1.4 safe_mode: 0 max_execution_time: 900 memory_limit: 500M (used: 63.4M | 65M) multisite: N mcrypt: Y LANG:  ZipArchive::addFile: N
0000.108 (0) Free space on disk containing Updraft's temporary directory: 21465.2 Mb
0000.112 (0) Tasks: Backup files:  (schedule: weekly) Backup DB: 1 (schedule: every4hours)
0000.116 (0) Processed schedules. Tasks now: Backup files:  Backup DB: 1
0000.122 (0) Requesting semaphore lock (d)
0000.129 (0) Set semaphore last lock (d) time to 2019-03-15 21:28:54
0000.132 (0) Semaphore lock (d) complete
0000.140 (0) Backup run: resumption=0, nonce=c97838e8b94b, begun at=1552685333 (1s ago), job type=backup
0000.146 (0) Scheduling a resumption (1) after 300 seconds (1552685634) in case this run gets aborted
0000.161 (0) This backup run is not intended for files - skipping
0000.166 (0) Beginning creation of database dump (WordPress DB)
0000.171 (0) Testing: /usr/bin/mysqldump
0000.344 (0) Working binary mysqldump found: /usr/bin/mysqldump
0000.363 (0) Table ele_options: Total expected rows (approximate): 5313
0000.566 (0) Table ele_options: Total rows added: 5476 in 0.20 seconds
0000.569 (0) Table ele_options: finishing file (backup_2019-03-16-0528_DharmaeLearning_c97838e8b94b-db-table-ele_options.table.gz - 231.3 Kb)
0000.590 (0) Table ele_users: Total expected rows (approximate): 573
0000.634 (0) Table ele_users: Total rows added: 634 in 0.04 seconds
0000.637 (0) Table ele_users: finishing file (backup_2019-03-16-0528_DharmaeLearning_c97838e8b94b-db-table-ele_users.table.gz - 40.6 Kb)
0000.646 (0) Table ele_usermeta: Total expected rows (approximate): 27454
0000.762 (0) Table ele_usermeta: binary mysqldump finished (writes: 33) in 0.11 seconds
0000.767 (0) Table ele_usermeta: finishing file (backup_2019-03-16-0528_DharmaeLearning_c97838e8b94b-db-table-ele_usermeta.table.gz - 276.7 Kb)
0000.782 (0) Table ele_commentmeta: Total expected rows (approximate): 1261
0000.807 (0) Table ele_commentmeta: Total rows added: 1492 in 0.02 seconds
0000.810 (0) Table ele_commentmeta: finishing file (backup_2019-03-16-0528_DharmaeLearning_c97838e8b94b-db-table-ele_commentmeta.table.gz - 9.3 Kb)
0000.820 (0) Table ele_comments: Total expected rows (approximate): 1026
0000.878 (0) Table ele_comments: Total rows added: 1234 in 0.06 seconds
0000.881 (0) Table ele_comments: finishing file (backup_2019-03-16-0528_DharmaeLearning_c97838e8b94b-db-table-ele_comments.table.gz - 32.7 Kb)
0000.890 (0) Table ele_links: Total expected rows (approximate): 0
0000.893 (0) Table ele_links: Total rows added: 0 in 0.00 seconds
0000.896 (0) Table ele_links: finishing file (backup_2019-03-16-0528_DharmaeLearning_c97838e8b94b-db-table-ele_links.table.gz - 0.4 Kb)
0000.905 (0) Table ele_postmeta: Total expected rows (approximate): 13816
0000.971 (0) Table ele_postmeta: binary mysqldump finished (writes: 33) in 0.06 seconds
0000.975 (0) Table ele_postmeta: finishing file (backup_2019-03-16-0528_DharmaeLearning_c97838e8b94b-db-table-ele_postmeta.table.gz - 173.7 Kb)
0000.985 (0) Table ele_posts: Total expected rows (approximate): 2455
0001.351 (0) Table ele_posts: Total rows added: 2420 in 0.36 seconds
0001.355 (0) Table ele_posts: finishing file (backup_2019-03-16-0528_DharmaeLearning_c97838e8b94b-db-table-ele_posts.table.gz - 534.6 Kb)
0001.364 (0) Table ele_signups: Total expected rows (approximate): 1
0001.367 (0) Table ele_signups: Total rows added: 1 in 0.00 seconds
0001.370 (0) Table ele_signups: finishing file (backup_2019-03-16-0528_DharmaeLearning_c97838e8b94b-db-table-ele_signups.table.gz - 0.6 Kb)
0001.378 (0) Table ele_term_relationships: Total expected rows (approximate): 153
0001.383 (0) Table ele_term_relationships: Total rows added: 160 in 0.00 seconds
0001.385 (0) Table ele_term_relationships: finishing file (backup_2019-03-16-0528_DharmaeLearning_c97838e8b94b-db-table-ele_term_relationships.table.gz - 0.8 Kb)
0001.395 (0) Table ele_term_taxonomy: Total expected rows (approximate): 29
0001.399 (0) Table ele_term_taxonomy: Total rows added: 29 in 0.00 seconds
0001.402 (0) Table ele_term_taxonomy: finishing file (backup_2019-03-16-0528_DharmaeLearning_c97838e8b94b-db-table-ele_term_taxonomy.table.gz - 0.6 Kb)
0001.411 (0) Table ele_terms: Total expected rows (approximate): 29
0001.416 (0) Table ele_terms: Total rows added: 29 in 0.00 seconds
0001.419 (0) Table ele_terms: finishing file (backup_2019-03-16-0528_DharmaeLearning_c97838e8b94b-db-table-ele_terms.table.gz - 0.8 Kb)
0001.429 (0) Table ele_woocommerce_order_itemmeta: Total expected rows (approximate): 4680
0001.510 (0) Table ele_woocommerce_order_itemmeta: Total rows added: 5346 in 0.08 seconds
0001.513 (0) Table ele_woocommerce_order_itemmeta: finishing file (backup_2019-03-16-0528_DharmaeLearning_c97838e8b94b-db-table-ele_woocommerce_order_itemmeta.table.gz - 29.1 Kb)
0001.522 (0) Table ele_woocommerce_termmeta: Total expected rows (approximate): 6
0001.526 (0) Table ele_woocommerce_termmeta: Total rows added: 6 in 0.00 seconds
0001.529 (0) Table ele_woocommerce_termmeta: finishing file (backup_2019-03-16-0528_DharmaeLearning_c97838e8b94b-db-table-ele_woocommerce_termmeta.table.gz - 0.4 Kb)
0001.537 (0) Table ele_3wp_activity_monitor_index: Total expected rows (approximate): 50
0001.543 (0) Table ele_3wp_activity_monitor_index: Total rows added: 50 in 0.00 seconds
0001.546 (0) Table ele_3wp_activity_monitor_index: finishing file (backup_2019-03-16-0528_DharmaeLearning_c97838e8b94b-db-table-ele_3wp_activity_monitor_index.table.gz - 3.3 Kb)
0001.556 (0) Table ele_3wp_activity_monitor_user_statistics: Total expected rows (approximate): 8
0001.560 (0) Table ele_3wp_activity_monitor_user_statistics: Total rows added: 8 in 0.00 seconds
0001.563 (0) Table ele_3wp_activity_monitor_user_statistics: finishing file (backup_2019-03-16-0528_DharmaeLearning_c97838e8b94b-db-table-ele_3wp_activity_monitor_user_statistics.table.gz - 0.4 Kb)
0001.571 (0) Table ele_countries: Total expected rows (approximate): 32
0001.575 (0) Table ele_countries: Total rows added: 32 in 0.00 seconds
0001.578 (0) Table ele_countries: finishing file (backup_2019-03-16-0528_DharmaeLearning_c97838e8b94b-db-table-ele_countries.table.gz - 0.7 Kb)
0001.590 (0) Table ele_ec2_s3: Total expected rows (approximate): 43
0001.594 (0) Table ele_ec2_s3: Total rows added: 43 in 0.00 seconds
0001.596 (0) Table ele_ec2_s3: finishing file (backup_2019-03-16-0528_DharmaeLearning_c97838e8b94b-db-table-ele_ec2_s3.table.gz - 0.8 Kb)
0001.605 (0) Table ele_gglcptch_whitelist: Total expected rows (approximate): 0
0001.608 (0) Table ele_gglcptch_whitelist: Total rows added: 0 in 0.00 seconds
0001.611 (0) Table ele_gglcptch_whitelist: finishing file (backup_2019-03-16-0528_DharmaeLearning_c97838e8b94b-db-table-ele_gglcptch_whitelist.table.gz - 0.3 Kb)
0001.619 (0) Table ele_icl_content_status: Total expected rows (approximate): 0
0001.623 (0) Table ele_icl_content_status: Total rows added: 0 in 0.00 seconds
0001.626 (0) Table ele_icl_content_status: finishing file (backup_2019-03-16-0528_DharmaeLearning_c97838e8b94b-db-table-ele_icl_content_status.table.gz - 0.3 Kb)
0001.635 (0) Table ele_icl_core_status: Total expected rows (approximate): 0
0001.638 (0) Table ele_icl_core_status: Total rows added: 0 in 0.00 seconds
0001.640 (0) Table ele_icl_core_status: finishing file (backup_2019-03-16-0528_DharmaeLearning_c97838e8b94b-db-table-ele_icl_core_status.table.gz - 0.3 Kb)
0001.650 (0) Table ele_icl_flags: Total expected rows (approximate): 64
0001.654 (0) Table ele_icl_flags: Total rows added: 64 in 0.00 seconds
0001.658 (0) Table ele_icl_flags: finishing file (backup_2019-03-16-0528_DharmaeLearning_c97838e8b94b-db-table-ele_icl_flags.table.gz - 0.8 Kb)
0001.667 (0) Table ele_icl_languages: Total expected rows (approximate): 64
0001.672 (0) Table ele_icl_languages: Total rows added: 64 in 0.00 seconds
0001.675 (0) Table ele_icl_languages: finishing file (backup_2019-03-16-0528_DharmaeLearning_c97838e8b94b-db-table-ele_icl_languages.table.gz - 1.5 Kb)
0001.684 (0) Table ele_icl_languages_translations: Total expected rows (approximate): 4096
0001.749 (0) Table ele_icl_languages_translations: Total rows added: 4096 in 0.06 seconds
0001.752 (0) Table ele_icl_languages_translations: finishing file (backup_2019-03-16-0528_DharmaeLearning_c97838e8b94b-db-table-ele_icl_languages_translations.table.gz - 31.9 Kb)
0001.761 (0) Table ele_icl_locale_map: Total expected rows (approximate): 2
0001.764 (0) Table ele_icl_locale_map: Total rows added: 2 in 0.00 seconds
0001.768 (0) Table ele_icl_locale_map: finishing file (backup_2019-03-16-0528_DharmaeLearning_c97838e8b94b-db-table-ele_icl_locale_map.table.gz - 0.3 Kb)
0001.777 (0) Table ele_icl_message_status: Total expected rows (approximate): 0
0001.781 (0) Table ele_icl_message_status: Total rows added: 0 in 0.00 seconds
0001.784 (0) Table ele_icl_message_status: finishing file (backup_2019-03-16-0528_DharmaeLearning_c97838e8b94b-db-table-ele_icl_message_status.table.gz - 0.4 Kb)
0001.793 (0) Table ele_icl_node: Total expected rows (approximate): 0
0001.796 (0) Table ele_icl_node: Total rows added: 0 in 0.00 seconds
0001.799 (0) Table ele_icl_node: finishing file (backup_2019-03-16-0528_DharmaeLearning_c97838e8b94b-db-table-ele_icl_node.table.gz - 0.3 Kb)
0001.808 (0) Table ele_icl_reminders: Total expected rows (approximate): 0
0001.811 (0) Table ele_icl_reminders: Total rows added: 0 in 0.00 seconds
0001.814 (0) Table ele_icl_reminders: finishing file (backup_2019-03-16-0528_DharmaeLearning_c97838e8b94b-db-table-ele_icl_reminders.table.gz - 0.3 Kb)
0001.822 (0) Table ele_icl_string_positions: Total expected rows (approximate): 126
0001.827 (0) Table ele_icl_string_positions: Total rows added: 126 in 0.00 seconds
0001.830 (0) Table ele_icl_string_positions: finishing file (backup_2019-03-16-0528_DharmaeLearning_c97838e8b94b-db-table-ele_icl_string_positions.table.gz - 1.9 Kb)
0001.840 (0) Table ele_icl_string_status: Total expected rows (approximate): 0
0001.844 (0) Table ele_icl_string_status: Total rows added: 0 in 0.00 seconds
0001.846 (0) Table ele_icl_string_status: finishing file (backup_2019-03-16-0528_DharmaeLearning_c97838e8b94b-db-table-ele_icl_string_status.table.gz - 0.3 Kb)
0001.855 (0) Table ele_icl_string_translations: Total expected rows (approximate): 1
0001.859 (0) Table ele_icl_string_translations: Total rows added: 1 in 0.00 seconds
0001.863 (0) Table ele_icl_string_translations: finishing file (backup_2019-03-16-0528_DharmaeLearning_c97838e8b94b-db-table-ele_icl_string_translations.table.gz - 0.5 Kb)
0001.872 (0) Table ele_icl_strings: Total expected rows (approximate): 225
0001.880 (0) Table ele_icl_strings: Total rows added: 225 in 0.01 seconds
0001.884 (0) Table ele_icl_strings: finishing file (backup_2019-03-16-0528_DharmaeLearning_c97838e8b94b-db-table-ele_icl_strings.table.gz - 9.1 Kb)
0001.894 (0) Table ele_icl_translate: Total expected rows (approximate): 22
0001.898 (0) Table ele_icl_translate: Total rows added: 22 in 0.00 seconds
0001.901 (0) Table ele_icl_translate: finishing file (backup_2019-03-16-0528_DharmaeLearning_c97838e8b94b-db-table-ele_icl_translate.table.gz - 3 Kb)
0001.912 (0) Table ele_icl_translate_job: Total expected rows (approximate): 6
0001.915 (0) Table ele_icl_translate_job: Total rows added: 6 in 0.00 seconds
0001.918 (0) Table ele_icl_translate_job: finishing file (backup_2019-03-16-0528_DharmaeLearning_c97838e8b94b-db-table-ele_icl_translate_job.table.gz - 0.4 Kb)
0001.927 (0) Table ele_icl_translation_status: Total expected rows (approximate): 3
0001.930 (0) Table ele_icl_translation_status: Total rows added: 3 in 0.00 seconds
0001.935 (0) Table ele_icl_translation_status: finishing file (backup_2019-03-16-0528_DharmaeLearning_c97838e8b94b-db-table-ele_icl_translation_status.table.gz - 2.5 Kb)
0001.946 (0) Table ele_icl_translations: Total expected rows (approximate): 512
0001.960 (0) Table ele_icl_translations: Total rows added: 512 in 0.01 seconds
0001.964 (0) Table ele_icl_translations: finishing file (backup_2019-03-16-0528_DharmaeLearning_c97838e8b94b-db-table-ele_icl_translations.table.gz - 4.7 Kb)
0001.973 (0) Table ele_initiations_received: Total expected rows (approximate): 707
0001.986 (0) Table ele_initiations_received: Total rows added: 847 in 0.01 seconds
0001.990 (0) Table ele_initiations_received: finishing file (backup_2019-03-16-0528_DharmaeLearning_c97838e8b94b-db-table-ele_initiations_received.table.gz - 5.9 Kb)
0001.999 (0) Table ele_login_redirects: Total expected rows (approximate): 6
0002.002 (0) Table ele_login_redirects: Total rows added: 6 in 0.00 seconds
0002.004 (0) Table ele_login_redirects: finishing file (backup_2019-03-16-0528_DharmaeLearning_c97838e8b94b-db-table-ele_login_redirects.table.gz - 0.4 Kb)
0002.013 (0) Table ele_pmpro_discount_codes: Total expected rows (approximate): 0
0002.017 (0) Table ele_pmpro_discount_codes: Total rows added: 0 in 0.00 seconds
0002.019 (0) Table ele_pmpro_discount_codes: finishing file (backup_2019-03-16-0528_DharmaeLearning_c97838e8b94b-db-table-ele_pmpro_discount_codes.table.gz - 0.3 Kb)
0002.028 (0) Table ele_pmpro_discount_codes_levels: Total expected rows (approximate): 0
0002.032 (0) Table ele_pmpro_discount_codes_levels: Total rows added: 0 in 0.00 seconds
0002.034 (0) Table ele_pmpro_discount_codes_levels: finishing file (backup_2019-03-16-0528_DharmaeLearning_c97838e8b94b-db-table-ele_pmpro_discount_codes_levels.table.gz - 0.5 Kb)
0002.044 (0) Table ele_pmpro_discount_codes_uses: Total expected rows (approximate): 0
0002.047 (0) Table ele_pmpro_discount_codes_uses: Total rows added: 0 in 0.00 seconds
0002.050 (0) Table ele_pmpro_discount_codes_uses: finishing file (backup_2019-03-16-0528_DharmaeLearning_c97838e8b94b-db-table-ele_pmpro_discount_codes_uses.table.gz - 0.3 Kb)
0002.060 (0) Table ele_pmpro_membership_levels: Total expected rows (approximate): 1
0002.063 (0) Table ele_pmpro_membership_levels: Total rows added: 1 in 0.00 seconds
0002.068 (0) Table ele_pmpro_membership_levels: finishing file (backup_2019-03-16-0528_DharmaeLearning_c97838e8b94b-db-table-ele_pmpro_membership_levels.table.gz - 0.6 Kb)
0002.077 (0) Table ele_pmpro_membership_orders: Total expected rows (approximate): 19
0002.085 (0) Table ele_pmpro_membership_orders: Total rows added: 19 in 0.00 seconds
0002.088 (0) Table ele_pmpro_membership_orders: finishing file (backup_2019-03-16-0528_DharmaeLearning_c97838e8b94b-db-table-ele_pmpro_membership_orders.table.gz - 2.1 Kb)
0002.097 (0) Table ele_pmpro_memberships_categories: Total expected rows (approximate): 0
0002.101 (0) Table ele_pmpro_memberships_categories: Total rows added: 0 in 0.00 seconds
0002.103 (0) Table ele_pmpro_memberships_categories: finishing file (backup_2019-03-16-0528_DharmaeLearning_c97838e8b94b-db-table-ele_pmpro_memberships_categories.table.gz - 0.3 Kb)
0002.113 (0) Table ele_pmpro_memberships_pages: Total expected rows (approximate): 0
0002.116 (0) Table ele_pmpro_memberships_pages: Total rows added: 0 in 0.00 seconds
0002.119 (0) Table ele_pmpro_memberships_pages: finishing file (backup_2019-03-16-0528_DharmaeLearning_c97838e8b94b-db-table-ele_pmpro_memberships_pages.table.gz - 0.3 Kb)
0002.130 (0) Table ele_pmpro_memberships_users: Total expected rows (approximate): 14
0002.134 (0) Table ele_pmpro_memberships_users: Total rows added: 14 in 0.00 seconds
0002.137 (0) Table ele_pmpro_memberships_users: finishing file (backup_2019-03-16-0528_DharmaeLearning_c97838e8b94b-db-table-ele_pmpro_memberships_users.table.gz - 1 Kb)
0002.149 (0) Table ele_practices: Total expected rows (approximate): 7
0002.153 (0) Table ele_practices: Total rows added: 7 in 0.00 seconds
0002.156 (0) Table ele_practices: finishing file (backup_2019-03-16-0528_DharmaeLearning_c97838e8b94b-db-table-ele_practices.table.gz - 0.4 Kb)
0002.167 (0) Table ele_rg_form: Total expected rows (approximate): 1
0002.171 (0) Table ele_rg_form: Total rows added: 1 in 0.00 seconds
0002.174 (0) Table ele_rg_form: finishing file (backup_2019-03-16-0528_DharmaeLearning_c97838e8b94b-db-table-ele_rg_form.table.gz - 0.4 Kb)
0002.183 (0) Table ele_rg_form_meta: Total expected rows (approximate): 1
0002.188 (0) Table ele_rg_form_meta: Total rows added: 1 in 0.00 seconds
0002.191 (0) Table ele_rg_form_meta: finishing file (backup_2019-03-16-0528_DharmaeLearning_c97838e8b94b-db-table-ele_rg_form_meta.table.gz - 0.7 Kb)
0002.200 (0) Table ele_rg_form_view: Total expected rows (approximate): 0
0002.203 (0) Table ele_rg_form_view: Total rows added: 0 in 0.00 seconds
0002.207 (0) Table ele_rg_form_view: finishing file (backup_2019-03-16-0528_DharmaeLearning_c97838e8b94b-db-table-ele_rg_form_view.table.gz - 0.3 Kb)
0002.216 (0) Table ele_rg_lead: Total expected rows (approximate): 0
0002.221 (0) Table ele_rg_lead: Total rows added: 0 in 0.00 seconds
0002.224 (0) Table ele_rg_lead: finishing file (backup_2019-03-16-0528_DharmaeLearning_c97838e8b94b-db-table-ele_rg_lead.table.gz - 0.5 Kb)
0002.233 (0) Table ele_rg_lead_detail: Total expected rows (approximate): 0
0002.236 (0) Table ele_rg_lead_detail: Total rows added: 0 in 0.00 seconds
0002.239 (0) Table ele_rg_lead_detail: finishing file (backup_2019-03-16-0528_DharmaeLearning_c97838e8b94b-db-table-ele_rg_lead_detail.table.gz - 0.3 Kb)
0002.250 (0) Table ele_rg_lead_detail_long: Total expected rows (approximate): 0
0002.253 (0) Table ele_rg_lead_detail_long: Total rows added: 0 in 0.00 seconds
0002.256 (0) Table ele_rg_lead_detail_long: finishing file (backup_2019-03-16-0528_DharmaeLearning_c97838e8b94b-db-table-ele_rg_lead_detail_long.table.gz - 0.3 Kb)
0002.266 (0) Table ele_rg_lead_meta: Total expected rows (approximate): 0
0002.270 (0) Table ele_rg_lead_meta: Total rows added: 0 in 0.00 seconds
0002.273 (0) Table ele_rg_lead_meta: finishing file (backup_2019-03-16-0528_DharmaeLearning_c97838e8b94b-db-table-ele_rg_lead_meta.table.gz - 0.4 Kb)
0002.283 (0) Table ele_rg_lead_notes: Total expected rows (approximate): 0
0002.288 (0) Table ele_rg_lead_notes: Total rows added: 0 in 0.00 seconds
0002.291 (0) Table ele_rg_lead_notes: finishing file (backup_2019-03-16-0528_DharmaeLearning_c97838e8b94b-db-table-ele_rg_lead_notes.table.gz - 0.3 Kb)
0002.299 (0) Table ele_school: Total expected rows (approximate): 7
0002.303 (0) Table ele_school: Total rows added: 7 in 0.00 seconds
0002.306 (0) Table ele_school: finishing file (backup_2019-03-16-0528_DharmaeLearning_c97838e8b94b-db-table-ele_school.table.gz - 0.4 Kb)
0002.315 (0) Table ele_teachers: Total expected rows (approximate): 11
0002.320 (0) Table ele_teachers: Total rows added: 11 in 0.00 seconds
0002.323 (0) Table ele_teachers: finishing file (backup_2019-03-16-0528_DharmaeLearning_c97838e8b94b-db-table-ele_teachers.table.gz - 0.4 Kb)
0002.335 (0) Table ele_upb_field: Total expected rows (approximate): 0
0002.339 (0) Table ele_upb_field: Total rows added: 0 in 0.00 seconds
0002.341 (0) Table ele_upb_field: finishing file (backup_2019-03-16-0528_DharmaeLearning_c97838e8b94b-db-table-ele_upb_field.table.gz - 0.3 Kb)
0002.351 (0) Table ele_upb_group: Total expected rows (approximate): 1
0002.354 (0) Table ele_upb_group: Total rows added: 1 in 0.00 seconds
0002.358 (0) Table ele_upb_group: finishing file (backup_2019-03-16-0528_DharmaeLearning_c97838e8b94b-db-table-ele_upb_group.table.gz - 0.3 Kb)
0002.368 (0) Table ele_upb_option: Total expected rows (approximate): 37
0002.372 (0) Table ele_upb_option: Total rows added: 37 in 0.00 seconds
0002.376 (0) Table ele_upb_option: finishing file (backup_2019-03-16-0528_DharmaeLearning_c97838e8b94b-db-table-ele_upb_option.table.gz - 0.7 Kb)
0002.393 (0) Table ele_upb_values: Total expected rows (approximate): 0
0002.397 (0) Table ele_upb_values: Total rows added: 0 in 0.00 seconds
0002.399 (0) Table ele_upb_values: finishing file (backup_2019-03-16-0528_DharmaeLearning_c97838e8b94b-db-table-ele_upb_values.table.gz - 0.3 Kb)
0002.409 (0) Table ele_users_ultra_pm: Total expected rows (approximate): 0
0002.412 (0) Table ele_users_ultra_pm: Total rows added: 0 in 0.00 seconds
0002.415 (0) Table ele_users_ultra_pm: finishing file (backup_2019-03-16-0528_DharmaeLearning_c97838e8b94b-db-table-ele_users_ultra_pm.table.gz - 0.3 Kb)
0002.423 (0) Table ele_usersultra_ajaxrating_vote: Total expected rows (approximate): 0
0002.427 (0) Table ele_usersultra_ajaxrating_vote: Total rows added: 0 in 0.00 seconds
0002.429 (0) Table ele_usersultra_ajaxrating_vote: finishing file (backup_2019-03-16-0528_DharmaeLearning_c97838e8b94b-db-table-ele_usersultra_ajaxrating_vote.table.gz - 0.4 Kb)
0002.439 (0) Table ele_usersultra_ajaxrating_votesummary: Total expected rows (approximate): 0
0002.442 (0) Table ele_usersultra_ajaxrating_votesummary: Total rows added: 0 in 0.00 seconds
0002.445 (0) Table ele_usersultra_ajaxrating_votesummary: finishing file (backup_2019-03-16-0528_DharmaeLearning_c97838e8b94b-db-table-ele_usersultra_ajaxrating_votesummary.table.gz - 0.4 Kb)
0002.455 (0) Table ele_usersultra_friends: Total expected rows (approximate): 0
0002.458 (0) Table ele_usersultra_friends: Total rows added: 0 in 0.00 seconds
0002.461 (0) Table ele_usersultra_friends: finishing file (backup_2019-03-16-0528_DharmaeLearning_c97838e8b94b-db-table-ele_usersultra_friends.table.gz - 0.3 Kb)
0002.471 (0) Table ele_usersultra_galleries: Total expected rows (approximate): 1
0002.474 (0) Table ele_usersultra_galleries: Total rows added: 1 in 0.00 seconds
0002.477 (0) Table ele_usersultra_galleries: finishing file (backup_2019-03-16-0528_DharmaeLearning_c97838e8b94b-db-table-ele_usersultra_galleries.table.gz - 0.4 Kb)
0002.487 (0) Table ele_usersultra_likes: Total expected rows (approximate): 0
0002.490 (0) Table ele_usersultra_likes: Total rows added: 0 in 0.00 seconds
0002.492 (0) Table ele_usersultra_likes: finishing file (backup_2019-03-16-0528_DharmaeLearning_c97838e8b94b-db-table-ele_usersultra_likes.table.gz - 0.3 Kb)
0002.503 (0) Table ele_usersultra_orders: Total expected rows (approximate): 0
0002.506 (0) Table ele_usersultra_orders: Total rows added: 0 in 0.00 seconds
0002.509 (0) Table ele_usersultra_orders: finishing file (backup_2019-03-16-0528_DharmaeLearning_c97838e8b94b-db-table-ele_usersultra_orders.table.gz - 0.4 Kb)
0002.519 (0) Table ele_usersultra_packages: Total expected rows (approximate): 0
0002.524 (0) Table ele_usersultra_packages: Total rows added: 0 in 0.00 seconds
0002.526 (0) Table ele_usersultra_packages: finishing file (backup_2019-03-16-0528_DharmaeLearning_c97838e8b94b-db-table-ele_usersultra_packages.table.gz - 0.4 Kb)
0002.536 (0) Table ele_usersultra_photo_cat_rel: Total expected rows (approximate): 0
0002.539 (0) Table ele_usersultra_photo_cat_rel: Total rows added: 0 in 0.00 seconds
0002.542 (0) Table ele_usersultra_photo_cat_rel: finishing file (backup_2019-03-16-0528_DharmaeLearning_c97838e8b94b-db-table-ele_usersultra_photo_cat_rel.table.gz - 0.3 Kb)
0002.551 (0) Table ele_usersultra_photo_categories: Total expected rows (approximate): 0
0002.554 (0) Table ele_usersultra_photo_categories: Total rows added: 0 in 0.00 seconds
0002.557 (0) Table ele_usersultra_photo_categories: finishing file (backup_2019-03-16-0528_DharmaeLearning_c97838e8b94b-db-table-ele_usersultra_photo_categories.table.gz - 0.3 Kb)
0002.567 (0) Table ele_usersultra_photos: Total expected rows (approximate): 1
0002.570 (0) Table ele_usersultra_photos: Total rows added: 1 in 0.00 seconds
0002.573 (0) Table ele_usersultra_photos: finishing file (backup_2019-03-16-0528_DharmaeLearning_c97838e8b94b-db-table-ele_usersultra_photos.table.gz - 0.4 Kb)
0002.582 (0) Table ele_usersultra_stats: Total expected rows (approximate): 0
0002.586 (0) Table ele_usersultra_stats: Total rows added: 0 in 0.00 seconds
0002.588 (0) Table ele_usersultra_stats: finishing file (backup_2019-03-16-0528_DharmaeLearning_c97838e8b94b-db-table-ele_usersultra_stats.table.gz - 0.3 Kb)
0002.597 (0) Table ele_usersultra_stats_raw: Total expected rows (approximate): 2
0002.601 (0) Table ele_usersultra_stats_raw: Total rows added: 2 in 0.00 seconds
0002.604 (0) Table ele_usersultra_stats_raw: finishing file (backup_2019-03-16-0528_DharmaeLearning_c97838e8b94b-db-table-ele_usersultra_stats_raw.table.gz - 0.4 Kb)
0002.614 (0) Table ele_usersultra_videos: Total expected rows (approximate): 1
0002.618 (0) Table ele_usersultra_videos: Total rows added: 1 in 0.00 seconds
0002.620 (0) Table ele_usersultra_videos: finishing file (backup_2019-03-16-0528_DharmaeLearning_c97838e8b94b-db-table-ele_usersultra_videos.table.gz - 0.4 Kb)
0002.630 (0) Table ele_vtprd_purchase_log: Total expected rows (approximate): 0
0002.634 (0) Table ele_vtprd_purchase_log: Total rows added: 0 in 0.00 seconds
0002.636 (0) Table ele_vtprd_purchase_log: finishing file (backup_2019-03-16-0528_DharmaeLearning_c97838e8b94b-db-table-ele_vtprd_purchase_log.table.gz - 0.4 Kb)
0002.646 (0) Table ele_vtprd_purchase_log_product: Total expected rows (approximate): 0
0002.650 (0) Table ele_vtprd_purchase_log_product: Total rows added: 0 in 0.00 seconds
0002.653 (0) Table ele_vtprd_purchase_log_product: finishing file (backup_2019-03-16-0528_DharmaeLearning_c97838e8b94b-db-table-ele_vtprd_purchase_log_product.table.gz - 0.4 Kb)
0002.662 (0) Table ele_vtprd_purchase_log_product_rule: Total expected rows (approximate): 0
0002.666 (0) Table ele_vtprd_purchase_log_product_rule: Total rows added: 0 in 0.00 seconds
0002.668 (0) Table ele_vtprd_purchase_log_product_rule: finishing file (backup_2019-03-16-0528_DharmaeLearning_c97838e8b94b-db-table-ele_vtprd_purchase_log_product_rule.table.gz - 0.3 Kb)
0002.678 (0) Table ele_vw_lsrooms: Total expected rows (approximate): 17
0002.683 (0) Table ele_vw_lsrooms: Total rows added: 17 in 0.00 seconds
0002.685 (0) Table ele_vw_lsrooms: finishing file (backup_2019-03-16-0528_DharmaeLearning_c97838e8b94b-db-table-ele_vw_lsrooms.table.gz - 1 Kb)
0002.695 (0) Table ele_vw_lwsessions: Total expected rows (approximate): 1
0002.699 (0) Table ele_vw_lwsessions: Total rows added: 1 in 0.00 seconds
0002.702 (0) Table ele_vw_lwsessions: finishing file (backup_2019-03-16-0528_DharmaeLearning_c97838e8b94b-db-table-ele_vw_lwsessions.table.gz - 0.5 Kb)
0002.710 (0) Table ele_vw_sessions: Total expected rows (approximate): 1
0002.714 (0) Table ele_vw_sessions: Total rows added: 1 in 0.00 seconds
0002.717 (0) Table ele_vw_sessions: finishing file (backup_2019-03-16-0528_DharmaeLearning_c97838e8b94b-db-table-ele_vw_sessions.table.gz - 0.5 Kb)
0002.727 (0) Table ele_wfBadLeechers: Total expected rows (approximate): 0
0002.730 (0) Table ele_wfBadLeechers: Total rows added: 0 in 0.00 seconds
0002.733 (0) Table ele_wfBadLeechers: finishing file (backup_2019-03-16-0528_DharmaeLearning_c97838e8b94b-db-table-ele_wfBadLeechers.table.gz - 0.3 Kb)
0002.742 (0) Table ele_wfBlockedCommentLog: Total expected rows (approximate): 0
0002.746 (0) Table ele_wfBlockedCommentLog: Total rows added: 0 in 0.00 seconds
0002.751 (0) Table ele_wfBlockedCommentLog: finishing file (backup_2019-03-16-0528_DharmaeLearning_c97838e8b94b-db-table-ele_wfBlockedCommentLog.table.gz - 0.3 Kb)
0002.762 (0) Table ele_wfBlockedIPLog: Total expected rows (approximate): 2882
0002.808 (0) Table ele_wfBlockedIPLog: Total rows added: 2882 in 0.04 seconds
0002.812 (0) Table ele_wfBlockedIPLog: finishing file (backup_2019-03-16-0528_DharmaeLearning_c97838e8b94b-db-table-ele_wfBlockedIPLog.table.gz - 19.7 Kb)
0002.821 (0) Table ele_wfBlocks: Total expected rows (approximate): 439
0002.835 (0) Table ele_wfBlocks: Total rows added: 439 in 0.01 seconds
0002.838 (0) Table ele_wfBlocks: finishing file (backup_2019-03-16-0528_DharmaeLearning_c97838e8b94b-db-table-ele_wfBlocks.table.gz - 4.9 Kb)
0002.848 (0) Table ele_wfBlocksAdv: Total expected rows (approximate): 60
0002.853 (0) Table ele_wfBlocksAdv: Total rows added: 60 in 0.00 seconds
0002.857 (0) Table ele_wfBlocksAdv: finishing file (backup_2019-03-16-0528_DharmaeLearning_c97838e8b94b-db-table-ele_wfBlocksAdv.table.gz - 1.8 Kb)
0002.866 (0) Table ele_wfConfig: Total expected rows (approximate): 213
0002.983 (0) Table ele_wfConfig: Total rows added: 213 in 0.11 seconds
0002.987 (0) Table ele_wfConfig: finishing file (backup_2019-03-16-0528_DharmaeLearning_c97838e8b94b-db-table-ele_wfConfig.table.gz - 969.8 Kb)
0002.996 (0) Table ele_wfCrawlers: Total expected rows (approximate): 107
0003.009 (0) Table ele_wfCrawlers: Total rows added: 107 in 0.00 seconds
0003.012 (0) Table ele_wfCrawlers: finishing file (backup_2019-03-16-0528_DharmaeLearning_c97838e8b94b-db-table-ele_wfCrawlers.table.gz - 1.9 Kb)
0003.022 (0) Table ele_wfFileMods: Total expected rows (approximate): 10229
0003.154 (0) Table ele_wfFileMods: binary mysqldump finished (writes: 36) in 0.13 seconds
0003.159 (0) Table ele_wfFileMods: finishing file (backup_2019-03-16-0528_DharmaeLearning_c97838e8b94b-db-table-ele_wfFileMods.table.gz - 789.4 Kb)
0003.170 (0) Table ele_wfHits: Total expected rows (approximate): 1631
0003.248 (0) Table ele_wfHits: Total rows added: 1631 in 0.08 seconds
0003.252 (0) Table ele_wfHits: finishing file (backup_2019-03-16-0528_DharmaeLearning_c97838e8b94b-db-table-ele_wfHits.table.gz - 47.3 Kb)
0003.261 (0) Table ele_wfHoover: Total expected rows (approximate): 0
0003.264 (0) Table ele_wfHoover: Total rows added: 0 in 0.00 seconds
0003.267 (0) Table ele_wfHoover: finishing file (backup_2019-03-16-0528_DharmaeLearning_c97838e8b94b-db-table-ele_wfHoover.table.gz - 0.3 Kb)
0003.279 (0) Table ele_wfIssues: Total expected rows (approximate): 4
0003.287 (0) Table ele_wfIssues: Total rows added: 4 in 0.00 seconds
0003.290 (0) Table ele_wfIssues: finishing file (backup_2019-03-16-0528_DharmaeLearning_c97838e8b94b-db-table-ele_wfIssues.table.gz - 1 Kb)
0003.299 (0) Table ele_wfKnownFileList: Total expected rows (approximate): 26433
0003.390 (0) Table ele_wfKnownFileList: binary mysqldump finished (writes: 30) in 0.09 seconds
0003.395 (0) Table ele_wfKnownFileList: finishing file (backup_2019-03-16-0528_DharmaeLearning_c97838e8b94b-db-table-ele_wfKnownFileList.table.gz - 259.7 Kb)
0003.405 (0) Table ele_wfLeechers: Total expected rows (approximate): 1467
0003.426 (0) Table ele_wfLeechers: Total rows added: 1467 in 0.01 seconds
0003.430 (0) Table ele_wfLeechers: finishing file (backup_2019-03-16-0528_DharmaeLearning_c97838e8b94b-db-table-ele_wfLeechers.table.gz - 8.6 Kb)
0003.439 (0) Table ele_wfLockedOut: Total expected rows (approximate): 0
0003.442 (0) Table ele_wfLockedOut: Total rows added: 0 in 0.00 seconds
0003.445 (0) Table ele_wfLockedOut: finishing file (backup_2019-03-16-0528_DharmaeLearning_c97838e8b94b-db-table-ele_wfLockedOut.table.gz - 0.3 Kb)
0003.454 (0) Table ele_wfLocs: Total expected rows (approximate): 0
0003.458 (0) Table ele_wfLocs: Total rows added: 0 in 0.00 seconds
0003.460 (0) Table ele_wfLocs: finishing file (backup_2019-03-16-0528_DharmaeLearning_c97838e8b94b-db-table-ele_wfLocs.table.gz - 0.4 Kb)
0003.469 (0) Table ele_wfLogins: Total expected rows (approximate): 953
0003.508 (0) Table ele_wfLogins: Total rows added: 953 in 0.04 seconds
0003.511 (0) Table ele_wfLogins: finishing file (backup_2019-03-16-0528_DharmaeLearning_c97838e8b94b-db-table-ele_wfLogins.table.gz - 24.2 Kb)
0003.523 (0) Table ele_wfNet404s: Total expected rows (approximate): 0
0003.526 (0) Table ele_wfNet404s: Total rows added: 0 in 0.00 seconds
0003.529 (0) Table ele_wfNet404s: finishing file (backup_2019-03-16-0528_DharmaeLearning_c97838e8b94b-db-table-ele_wfNet404s.table.gz - 0.3 Kb)
0003.538 (0) Table ele_wfNotifications: Total expected rows (approximate): 26
0003.542 (0) Table ele_wfNotifications: Total rows added: 26 in 0.00 seconds
0003.545 (0) Table ele_wfNotifications: finishing file (backup_2019-03-16-0528_DharmaeLearning_c97838e8b94b-db-table-ele_wfNotifications.table.gz - 0.8 Kb)
0003.555 (0) Table ele_wfPendingIssues: Total expected rows (approximate): 150
0003.567 (0) Table ele_wfPendingIssues: Total rows added: 150 in 0.01 seconds
0003.571 (0) Table ele_wfPendingIssues: finishing file (backup_2019-03-16-0528_DharmaeLearning_c97838e8b94b-db-table-ele_wfPendingIssues.table.gz - 12.3 Kb)
0003.580 (0) Table ele_wfReverseCache: Total expected rows (approximate): 322
0003.590 (0) Table ele_wfReverseCache: Total rows added: 322 in 0.01 seconds
0003.593 (0) Table ele_wfReverseCache: finishing file (backup_2019-03-16-0528_DharmaeLearning_c97838e8b94b-db-table-ele_wfReverseCache.table.gz - 6.2 Kb)
0003.602 (0) Table ele_wfSNIPCache: Total expected rows (approximate): 0
0003.606 (0) Table ele_wfSNIPCache: Total rows added: 0 in 0.00 seconds
0003.609 (0) Table ele_wfSNIPCache: finishing file (backup_2019-03-16-0528_DharmaeLearning_c97838e8b94b-db-table-ele_wfSNIPCache.table.gz - 0.4 Kb)
0003.618 (0) Table ele_wfScanners: Total expected rows (approximate): 0
0003.621 (0) Table ele_wfScanners: Total rows added: 0 in 0.00 seconds
0003.624 (0) Table ele_wfScanners: finishing file (backup_2019-03-16-0528_DharmaeLearning_c97838e8b94b-db-table-ele_wfScanners.table.gz - 0.3 Kb)
0003.634 (0) Table ele_wfStatus: Total expected rows (approximate): 982
0003.657 (0) Table ele_wfStatus: Total rows added: 982 in 0.02 seconds
0003.661 (0) Table ele_wfStatus: finishing file (backup_2019-03-16-0528_DharmaeLearning_c97838e8b94b-db-table-ele_wfStatus.table.gz - 16.4 Kb)
0003.670 (0) Table ele_wfThrottleLog: Total expected rows (approximate): 0
0003.673 (0) Table ele_wfThrottleLog: Total rows added: 0 in 0.00 seconds
0003.675 (0) Table ele_wfThrottleLog: finishing file (backup_2019-03-16-0528_DharmaeLearning_c97838e8b94b-db-table-ele_wfThrottleLog.table.gz - 0.3 Kb)
0003.684 (0) Table ele_wfVulnScanners: Total expected rows (approximate): 0
0003.688 (0) Table ele_wfVulnScanners: Total rows added: 0 in 0.00 seconds
0003.690 (0) Table ele_wfVulnScanners: finishing file (backup_2019-03-16-0528_DharmaeLearning_c97838e8b94b-db-table-ele_wfVulnScanners.table.gz - 0.3 Kb)
0003.699 (0) Table ele_woocommerce_attribute_taxonomies: Total expected rows (approximate): 0
0003.702 (0) Table ele_woocommerce_attribute_taxonomies: Total rows added: 0 in 0.00 seconds
0003.706 (0) Table ele_woocommerce_attribute_taxonomies: finishing file (backup_2019-03-16-0528_DharmaeLearning_c97838e8b94b-db-table-ele_woocommerce_attribute_taxonomies.table.gz - 0.3 Kb)
0003.715 (0) Table ele_woocommerce_downloadable_product_permissions: Total expected rows (approximate): 0
0003.718 (0) Table ele_woocommerce_downloadable_product_permissions: Total rows added: 0 in 0.00 seconds
0003.721 (0) Table ele_woocommerce_downloadable_product_permissions: finishing file (backup_2019-03-16-0528_DharmaeLearning_c97838e8b94b-db-table-ele_woocommerce_downloadable_product_permissions.table.gz - 0.4 Kb)
0003.736 (0) Table ele_woocommerce_order_items: Total expected rows (approximate): 520
0003.749 (0) Table ele_woocommerce_order_items: Total rows added: 594 in 0.01 seconds
0003.752 (0) Table ele_woocommerce_order_items: finishing file (backup_2019-03-16-0528_DharmaeLearning_c97838e8b94b-db-table-ele_woocommerce_order_items.table.gz - 4.7 Kb)
0003.762 (0) Table ele_woocommerce_tax_rate_locations: Total expected rows (approximate): 0
0003.765 (0) Table ele_woocommerce_tax_rate_locations: Total rows added: 0 in 0.00 seconds
0003.767 (0) Table ele_woocommerce_tax_rate_locations: finishing file (backup_2019-03-16-0528_DharmaeLearning_c97838e8b94b-db-table-ele_woocommerce_tax_rate_locations.table.gz - 0.3 Kb)
0003.776 (0) Table ele_woocommerce_tax_rates: Total expected rows (approximate): 0
0003.780 (0) Table ele_woocommerce_tax_rates: Total rows added: 0 in 0.00 seconds
0003.782 (0) Table ele_woocommerce_tax_rates: finishing file (backup_2019-03-16-0528_DharmaeLearning_c97838e8b94b-db-table-ele_woocommerce_tax_rates.table.gz - 0.4 Kb)
0003.791 (0) Table ele_wp_pro_quiz_category: Total expected rows (approximate): 1
0003.794 (0) Table ele_wp_pro_quiz_category: Total rows added: 1 in 0.00 seconds
0003.797 (0) Table ele_wp_pro_quiz_category: finishing file (backup_2019-03-16-0528_DharmaeLearning_c97838e8b94b-db-table-ele_wp_pro_quiz_category.table.gz - 0.3 Kb)
0003.806 (0) Table ele_wp_pro_quiz_form: Total expected rows (approximate): 0
0003.809 (0) Table ele_wp_pro_quiz_form: Total rows added: 0 in 0.00 seconds
0003.812 (0) Table ele_wp_pro_quiz_form: finishing file (backup_2019-03-16-0528_DharmaeLearning_c97838e8b94b-db-table-ele_wp_pro_quiz_form.table.gz - 0.3 Kb)
0003.821 (0) Table ele_wp_pro_quiz_lock: Total expected rows (approximate): 0
0003.825 (0) Table ele_wp_pro_quiz_lock: Total rows added: 0 in 0.00 seconds
0003.827 (0) Table ele_wp_pro_quiz_lock: finishing file (backup_2019-03-16-0528_DharmaeLearning_c97838e8b94b-db-table-ele_wp_pro_quiz_lock.table.gz - 0.3 Kb)
0003.837 (0) Table ele_wp_pro_quiz_master: Total expected rows (approximate): 1
0003.841 (0) Table ele_wp_pro_quiz_master: Total rows added: 1 in 0.00 seconds
0003.845 (0) Table ele_wp_pro_quiz_master: finishing file (backup_2019-03-16-0528_DharmaeLearning_c97838e8b94b-db-table-ele_wp_pro_quiz_master.table.gz - 0.9 Kb)
0003.855 (0) Table ele_wp_pro_quiz_prerequisite: Total expected rows (approximate): 0
0003.858 (0) Table ele_wp_pro_quiz_prerequisite: Total rows added: 0 in 0.00 seconds
0003.861 (0) Table ele_wp_pro_quiz_prerequisite: finishing file (backup_2019-03-16-0528_DharmaeLearning_c97838e8b94b-db-table-ele_wp_pro_quiz_prerequisite.table.gz - 0.3 Kb)
0003.871 (0) Table ele_wp_pro_quiz_question: Total expected rows (approximate): 1
0003.875 (0) Table ele_wp_pro_quiz_question: Total rows added: 1 in 0.00 seconds
0003.878 (0) Table ele_wp_pro_quiz_question: finishing file (backup_2019-03-16-0528_DharmaeLearning_c97838e8b94b-db-table-ele_wp_pro_quiz_question.table.gz - 1.8 Kb)
0003.887 (0) Table ele_wp_pro_quiz_statistic: Total expected rows (approximate): 0
0003.891 (0) Table ele_wp_pro_quiz_statistic: Total rows added: 0 in 0.00 seconds
0003.894 (0) Table ele_wp_pro_quiz_statistic: finishing file (backup_2019-03-16-0528_DharmaeLearning_c97838e8b94b-db-table-ele_wp_pro_quiz_statistic.table.gz - 0.3 Kb)
0003.904 (0) Table ele_wp_pro_quiz_statistic_ref: Total expected rows (approximate): 0
0003.908 (0) Table ele_wp_pro_quiz_statistic_ref: Total rows added: 0 in 0.00 seconds
0003.910 (0) Table ele_wp_pro_quiz_statistic_ref: finishing file (backup_2019-03-16-0528_DharmaeLearning_c97838e8b94b-db-table-ele_wp_pro_quiz_statistic_ref.table.gz - 0.4 Kb)
0003.920 (0) Table ele_wp_pro_quiz_template: Total expected rows (approximate): 2
0003.924 (0) Table ele_wp_pro_quiz_template: Total rows added: 2 in 0.00 seconds
0003.927 (0) Table ele_wp_pro_quiz_template: finishing file (backup_2019-03-16-0528_DharmaeLearning_c97838e8b94b-db-table-ele_wp_pro_quiz_template.table.gz - 2.5 Kb)
0003.936 (0) Table ele_wp_pro_quiz_toplist: Total expected rows (approximate): 0
0003.940 (0) Table ele_wp_pro_quiz_toplist: Total rows added: 0 in 0.00 seconds
0003.943 (0) Table ele_wp_pro_quiz_toplist: finishing file (backup_2019-03-16-0528_DharmaeLearning_c97838e8b94b-db-table-ele_wp_pro_quiz_toplist.table.gz - 0.4 Kb)
0003.952 (0) Table ele_wpfront_ure_options: Total expected rows (approximate): 1
0003.956 (0) Table ele_wpfront_ure_options: Total rows added: 1 in 0.00 seconds
0003.958 (0) Table ele_wpfront_ure_options: finishing file (backup_2019-03-16-0528_DharmaeLearning_c97838e8b94b-db-table-ele_wpfront_ure_options.table.gz - 0.3 Kb)
0003.968 (0) Table ele_wsal_metadata: Total expected rows (approximate): 6
0003.972 (0) Table ele_wsal_metadata: Total rows added: 6 in 0.00 seconds
0003.975 (0) Table ele_wsal_metadata: finishing file (backup_2019-03-16-0528_DharmaeLearning_c97838e8b94b-db-table-ele_wsal_metadata.table.gz - 0.7 Kb)
0003.984 (0) Table ele_wsal_occurrences: Total expected rows (approximate): 1
0003.988 (0) Table ele_wsal_occurrences: Total rows added: 1 in 0.00 seconds
0003.992 (0) Table ele_wsal_occurrences: finishing file (backup_2019-03-16-0528_DharmaeLearning_c97838e8b94b-db-table-ele_wsal_occurrences.table.gz - 0.4 Kb)
0004.002 (0) Table ele_yop2_poll_answermeta: Total expected rows (approximate): 0
0004.005 (0) Table ele_yop2_poll_answermeta: Total rows added: 0 in 0.00 seconds
0004.008 (0) Table ele_yop2_poll_answermeta: finishing file (backup_2019-03-16-0528_DharmaeLearning_c97838e8b94b-db-table-ele_yop2_poll_answermeta.table.gz - 0.3 Kb)
0004.017 (0) Table ele_yop2_poll_answers: Total expected rows (approximate): 0
0004.021 (0) Table ele_yop2_poll_answers: Total rows added: 0 in 0.00 seconds
0004.024 (0) Table ele_yop2_poll_answers: finishing file (backup_2019-03-16-0528_DharmaeLearning_c97838e8b94b-db-table-ele_yop2_poll_answers.table.gz - 0.4 Kb)
0004.034 (0) Table ele_yop2_poll_bans: Total expected rows (approximate): 0
0004.039 (0) Table ele_yop2_poll_bans: Total rows added: 0 in 0.00 seconds
0004.042 (0) Table ele_yop2_poll_bans: finishing file (backup_2019-03-16-0528_DharmaeLearning_c97838e8b94b-db-table-ele_yop2_poll_bans.table.gz - 0.3 Kb)
0004.052 (0) Table ele_yop2_poll_custom_fields: Total expected rows (approximate): 0
0004.057 (0) Table ele_yop2_poll_custom_fields: Total rows added: 0 in 0.00 seconds
0004.060 (0) Table ele_yop2_poll_custom_fields: finishing file (backup_2019-03-16-0528_DharmaeLearning_c97838e8b94b-db-table-ele_yop2_poll_custom_fields.table.gz - 0.3 Kb)
0004.074 (0) Table ele_yop2_poll_logs: Total expected rows (approximate): 0
0004.079 (0) Table ele_yop2_poll_logs: Total rows added: 0 in 0.00 seconds
0004.082 (0) Table ele_yop2_poll_logs: finishing file (backup_2019-03-16-0528_DharmaeLearning_c97838e8b94b-db-table-ele_yop2_poll_logs.table.gz - 0.4 Kb)
0004.092 (0) Table ele_yop2_poll_questionmeta: Total expected rows (approximate): 0
0004.095 (0) Table ele_yop2_poll_questionmeta: Total rows added: 0 in 0.00 seconds
0004.099 (0) Table ele_yop2_poll_questionmeta: finishing file (backup_2019-03-16-0528_DharmaeLearning_c97838e8b94b-db-table-ele_yop2_poll_questionmeta.table.gz - 0.3 Kb)
0004.108 (0) Table ele_yop2_poll_questions: Total expected rows (approximate): 0
0004.111 (0) Table ele_yop2_poll_questions: Total rows added: 0 in 0.00 seconds
0004.115 (0) Table ele_yop2_poll_questions: finishing file (backup_2019-03-16-0528_DharmaeLearning_c97838e8b94b-db-table-ele_yop2_poll_questions.table.gz - 0.4 Kb)
0004.123 (0) Table ele_yop2_poll_results: Total expected rows (approximate): 0
0004.127 (0) Table ele_yop2_poll_results: Total rows added: 0 in 0.00 seconds
0004.130 (0) Table ele_yop2_poll_results: finishing file (backup_2019-03-16-0528_DharmaeLearning_c97838e8b94b-db-table-ele_yop2_poll_results.table.gz - 0.4 Kb)
0004.139 (0) Table ele_yop2_poll_templates: Total expected rows (approximate): 15
0004.150 (0) Table ele_yop2_poll_templates: Total rows added: 15 in 0.01 seconds
0004.152 (0) Table ele_yop2_poll_templates: finishing file (backup_2019-03-16-0528_DharmaeLearning_c97838e8b94b-db-table-ele_yop2_poll_templates.table.gz - 5.4 Kb)
0004.162 (0) Table ele_yop2_poll_votes_custom_fields: Total expected rows (approximate): 0
0004.166 (0) Table ele_yop2_poll_votes_custom_fields: Total rows added: 0 in 0.00 seconds
0004.169 (0) Table ele_yop2_poll_votes_custom_fields: finishing file (backup_2019-03-16-0528_DharmaeLearning_c97838e8b94b-db-table-ele_yop2_poll_votes_custom_fields.table.gz - 0.4 Kb)
0004.183 (0) Table ele_yop2_pollmeta: Total expected rows (approximate): 0
0004.189 (0) Table ele_yop2_pollmeta: Total rows added: 0 in 0.00 seconds
0004.192 (0) Table ele_yop2_pollmeta: finishing file (backup_2019-03-16-0528_DharmaeLearning_c97838e8b94b-db-table-ele_yop2_pollmeta.table.gz - 0.3 Kb)
0004.201 (0) Table ele_yop2_polls: Total expected rows (approximate): 0
0004.205 (0) Table ele_yop2_polls: Total rows added: 0 in 0.00 seconds
0004.208 (0) Table ele_yop2_polls: finishing file (backup_2019-03-16-0528_DharmaeLearning_c97838e8b94b-db-table-ele_yop2_polls.table.gz - 0.4 Kb)
0004.218 (0) backup_2019-03-16-0528_DharmaeLearning_c97838e8b94b-db-table-ele_options.table.gz (1/136): adding to final database dump
0004.274 (0) backup_2019-03-16-0528_DharmaeLearning_c97838e8b94b-db-table-ele_users.table.gz (2/136): adding to final database dump
0004.283 (0) backup_2019-03-16-0528_DharmaeLearning_c97838e8b94b-db-table-ele_usermeta.table.gz (3/136): adding to final database dump
0004.361 (0) backup_2019-03-16-0528_DharmaeLearning_c97838e8b94b-db-table-ele_commentmeta.table.gz (4/136): adding to final database dump
0004.368 (0) backup_2019-03-16-0528_DharmaeLearning_c97838e8b94b-db-table-ele_comments.table.gz (5/136): adding to final database dump
0004.381 (0) backup_2019-03-16-0528_DharmaeLearning_c97838e8b94b-db-table-ele_links.table.gz (6/136): adding to final database dump
0004.383 (0) backup_2019-03-16-0528_DharmaeLearning_c97838e8b94b-db-table-ele_postmeta.table.gz (7/136): adding to final database dump
0004.447 (0) backup_2019-03-16-0528_DharmaeLearning_c97838e8b94b-db-table-ele_posts.table.gz (8/136): adding to final database dump
0004.638 (0) backup_2019-03-16-0528_DharmaeLearning_c97838e8b94b-db-table-ele_signups.table.gz (9/136): adding to final database dump
0004.641 (0) backup_2019-03-16-0528_DharmaeLearning_c97838e8b94b-db-table-ele_term_relationships.table.gz (10/136): adding to final database dump
0004.648 (0) backup_2019-03-16-0528_DharmaeLearning_c97838e8b94b-db-table-ele_term_taxonomy.table.gz (11/136): adding to final database dump
0004.652 (0) backup_2019-03-16-0528_DharmaeLearning_c97838e8b94b-db-table-ele_terms.table.gz (12/136): adding to final database dump
0004.655 (0) backup_2019-03-16-0528_DharmaeLearning_c97838e8b94b-db-table-ele_woocommerce_order_itemmeta.table.gz (13/136): adding to final database dump
0004.674 (0) backup_2019-03-16-0528_DharmaeLearning_c97838e8b94b-db-table-ele_woocommerce_termmeta.table.gz (14/136): adding to final database dump
0004.677 (0) backup_2019-03-16-0528_DharmaeLearning_c97838e8b94b-db-table-ele_3wp_activity_monitor_index.table.gz (15/136): adding to final database dump
0004.680 (0) backup_2019-03-16-0528_DharmaeLearning_c97838e8b94b-db-table-ele_3wp_activity_monitor_user_statistics.table.gz (16/136): adding to final database dump
0004.683 (0) backup_2019-03-16-0528_DharmaeLearning_c97838e8b94b-db-table-ele_countries.table.gz (17/136): adding to final database dump
0004.686 (0) backup_2019-03-16-0528_DharmaeLearning_c97838e8b94b-db-table-ele_ec2_s3.table.gz (18/136): adding to final database dump
0004.688 (0) backup_2019-03-16-0528_DharmaeLearning_c97838e8b94b-db-table-ele_gglcptch_whitelist.table.gz (19/136): adding to final database dump
0004.691 (0) backup_2019-03-16-0528_DharmaeLearning_c97838e8b94b-db-table-ele_icl_content_status.table.gz (20/136): adding to final database dump
0004.693 (0) backup_2019-03-16-0528_DharmaeLearning_c97838e8b94b-db-table-ele_icl_core_status.table.gz (21/136): adding to final database dump
0004.696 (0) backup_2019-03-16-0528_DharmaeLearning_c97838e8b94b-db-table-ele_icl_flags.table.gz (22/136): adding to final database dump
0004.699 (0) backup_2019-03-16-0528_DharmaeLearning_c97838e8b94b-db-table-ele_icl_languages.table.gz (23/136): adding to final database dump
0004.702 (0) backup_2019-03-16-0528_DharmaeLearning_c97838e8b94b-db-table-ele_icl_languages_translations.table.gz (24/136): adding to final database dump
0004.721 (0) backup_2019-03-16-0528_DharmaeLearning_c97838e8b94b-db-table-ele_icl_locale_map.table.gz (25/136): adding to final database dump
0004.724 (0) backup_2019-03-16-0528_DharmaeLearning_c97838e8b94b-db-table-ele_icl_message_status.table.gz (26/136): adding to final database dump
0004.727 (0) backup_2019-03-16-0528_DharmaeLearning_c97838e8b94b-db-table-ele_icl_node.table.gz (27/136): adding to final database dump
0004.730 (0) backup_2019-03-16-0528_DharmaeLearning_c97838e8b94b-db-table-ele_icl_reminders.table.gz (28/136): adding to final database dump
0004.732 (0) backup_2019-03-16-0528_DharmaeLearning_c97838e8b94b-db-table-ele_icl_string_positions.table.gz (29/136): adding to final database dump
0004.736 (0) backup_2019-03-16-0528_DharmaeLearning_c97838e8b94b-db-table-ele_icl_string_status.table.gz (30/136): adding to final database dump
0004.738 (0) backup_2019-03-16-0528_DharmaeLearning_c97838e8b94b-db-table-ele_icl_string_translations.table.gz (31/136): adding to final database dump
0004.741 (0) backup_2019-03-16-0528_DharmaeLearning_c97838e8b94b-db-table-ele_icl_strings.table.gz (32/136): adding to final database dump
0004.746 (0) backup_2019-03-16-0528_DharmaeLearning_c97838e8b94b-db-table-ele_icl_translate.table.gz (33/136): adding to final database dump
0004.749 (0) backup_2019-03-16-0528_DharmaeLearning_c97838e8b94b-db-table-ele_icl_translate_job.table.gz (34/136): adding to final database dump
0004.753 (0) backup_2019-03-16-0528_DharmaeLearning_c97838e8b94b-db-table-ele_icl_translation_status.table.gz (35/136): adding to final database dump
0004.756 (0) backup_2019-03-16-0528_DharmaeLearning_c97838e8b94b-db-table-ele_icl_translations.table.gz (36/136): adding to final database dump
0004.761 (0) backup_2019-03-16-0528_DharmaeLearning_c97838e8b94b-db-table-ele_initiations_received.table.gz (37/136): adding to final database dump
0004.765 (0) backup_2019-03-16-0528_DharmaeLearning_c97838e8b94b-db-table-ele_login_redirects.table.gz (38/136): adding to final database dump
0004.769 (0) backup_2019-03-16-0528_DharmaeLearning_c97838e8b94b-db-table-ele_pmpro_discount_codes.table.gz (39/136): adding to final database dump
0004.772 (0) backup_2019-03-16-0528_DharmaeLearning_c97838e8b94b-db-table-ele_pmpro_discount_codes_levels.table.gz (40/136): adding to final database dump
0004.774 (0) backup_2019-03-16-0528_DharmaeLearning_c97838e8b94b-db-table-ele_pmpro_discount_codes_uses.table.gz (41/136): adding to final database dump
0004.778 (0) backup_2019-03-16-0528_DharmaeLearning_c97838e8b94b-db-table-ele_pmpro_membership_levels.table.gz (42/136): adding to final database dump
0004.782 (0) backup_2019-03-16-0528_DharmaeLearning_c97838e8b94b-db-table-ele_pmpro_membership_orders.table.gz (43/136): adding to final database dump
0004.785 (0) backup_2019-03-16-0528_DharmaeLearning_c97838e8b94b-db-table-ele_pmpro_memberships_categories.table.gz (44/136): adding to final database dump
0004.788 (0) backup_2019-03-16-0528_DharmaeLearning_c97838e8b94b-db-table-ele_pmpro_memberships_pages.table.gz (45/136): adding to final database dump
0004.792 (0) backup_2019-03-16-0528_DharmaeLearning_c97838e8b94b-db-table-ele_pmpro_memberships_users.table.gz (46/136): adding to final database dump
0004.795 (0) backup_2019-03-16-0528_DharmaeLearning_c97838e8b94b-db-table-ele_practices.table.gz (47/136): adding to final database dump
0004.797 (0) backup_2019-03-16-0528_DharmaeLearning_c97838e8b94b-db-table-ele_rg_form.table.gz (48/136): adding to final database dump
0004.800 (0) backup_2019-03-16-0528_DharmaeLearning_c97838e8b94b-db-table-ele_rg_form_meta.table.gz (49/136): adding to final database dump
0004.803 (0) backup_2019-03-16-0528_DharmaeLearning_c97838e8b94b-db-table-ele_rg_form_view.table.gz (50/136): adding to final database dump
0004.806 (0) backup_2019-03-16-0528_DharmaeLearning_c97838e8b94b-db-table-ele_rg_lead.table.gz (51/136): adding to final database dump
0004.808 (0) backup_2019-03-16-0528_DharmaeLearning_c97838e8b94b-db-table-ele_rg_lead_detail.table.gz (52/136): adding to final database dump
0004.811 (0) backup_2019-03-16-0528_DharmaeLearning_c97838e8b94b-db-table-ele_rg_lead_detail_long.table.gz (53/136): adding to final database dump
0004.814 (0) backup_2019-03-16-0528_DharmaeLearning_c97838e8b94b-db-table-ele_rg_lead_meta.table.gz (54/136): adding to final database dump
0004.817 (0) backup_2019-03-16-0528_DharmaeLearning_c97838e8b94b-db-table-ele_rg_lead_notes.table.gz (55/136): adding to final database dump
0004.820 (0) backup_2019-03-16-0528_DharmaeLearning_c97838e8b94b-db-table-ele_school.table.gz (56/136): adding to final database dump
0004.823 (0) backup_2019-03-16-0528_DharmaeLearning_c97838e8b94b-db-table-ele_teachers.table.gz (57/136): adding to final database dump
0004.825 (0) backup_2019-03-16-0528_DharmaeLearning_c97838e8b94b-db-table-ele_upb_field.table.gz (58/136): adding to final database dump
0004.828 (0) backup_2019-03-16-0528_DharmaeLearning_c97838e8b94b-db-table-ele_upb_group.table.gz (59/136): adding to final database dump
0004.831 (0) backup_2019-03-16-0528_DharmaeLearning_c97838e8b94b-db-table-ele_upb_option.table.gz (60/136): adding to final database dump
0004.834 (0) backup_2019-03-16-0528_DharmaeLearning_c97838e8b94b-db-table-ele_upb_values.table.gz (61/136): adding to final database dump
0004.836 (0) backup_2019-03-16-0528_DharmaeLearning_c97838e8b94b-db-table-ele_users_ultra_pm.table.gz (62/136): adding to final database dump
0004.839 (0) backup_2019-03-16-0528_DharmaeLearning_c97838e8b94b-db-table-ele_usersultra_ajaxrating_vote.table.gz (63/136): adding to final database dump
0004.842 (0) backup_2019-03-16-0528_DharmaeLearning_c97838e8b94b-db-table-ele_usersultra_ajaxrating_votesummary.table.gz (64/136): adding to final database dump
0004.845 (0) backup_2019-03-16-0528_DharmaeLearning_c97838e8b94b-db-table-ele_usersultra_friends.table.gz (65/136): adding to final database dump
0004.847 (0) backup_2019-03-16-0528_DharmaeLearning_c97838e8b94b-db-table-ele_usersultra_galleries.table.gz (66/136): adding to final database dump
0004.851 (0) backup_2019-03-16-0528_DharmaeLearning_c97838e8b94b-db-table-ele_usersultra_likes.table.gz (67/136): adding to final database dump
0004.853 (0) backup_2019-03-16-0528_DharmaeLearning_c97838e8b94b-db-table-ele_usersultra_orders.table.gz (68/136): adding to final database dump
0004.856 (0) backup_2019-03-16-0528_DharmaeLearning_c97838e8b94b-db-table-ele_usersultra_packages.table.gz (69/136): adding to final database dump
0004.859 (0) backup_2019-03-16-0528_DharmaeLearning_c97838e8b94b-db-table-ele_usersultra_photo_cat_rel.table.gz (70/136): adding to final database dump
0004.862 (0) backup_2019-03-16-0528_DharmaeLearning_c97838e8b94b-db-table-ele_usersultra_photo_categories.table.gz (71/136): adding to final database dump
0004.864 (0) backup_2019-03-16-0528_DharmaeLearning_c97838e8b94b-db-table-ele_usersultra_photos.table.gz (72/136): adding to final database dump
0004.867 (0) backup_2019-03-16-0528_DharmaeLearning_c97838e8b94b-db-table-ele_usersultra_stats.table.gz (73/136): adding to final database dump
0004.870 (0) backup_2019-03-16-0528_DharmaeLearning_c97838e8b94b-db-table-ele_usersultra_stats_raw.table.gz (74/136): adding to final database dump
0004.873 (0) backup_2019-03-16-0528_DharmaeLearning_c97838e8b94b-db-table-ele_usersultra_videos.table.gz (75/136): adding to final database dump
0004.876 (0) backup_2019-03-16-0528_DharmaeLearning_c97838e8b94b-db-table-ele_vtprd_purchase_log.table.gz (76/136): adding to final database dump
0004.879 (0) backup_2019-03-16-0528_DharmaeLearning_c97838e8b94b-db-table-ele_vtprd_purchase_log_product.table.gz (77/136): adding to final database dump
0004.881 (0) backup_2019-03-16-0528_DharmaeLearning_c97838e8b94b-db-table-ele_vtprd_purchase_log_product_rule.table.gz (78/136): adding to final database dump
0004.884 (0) backup_2019-03-16-0528_DharmaeLearning_c97838e8b94b-db-table-ele_vw_lsrooms.table.gz (79/136): adding to final database dump
0004.887 (0) backup_2019-03-16-0528_DharmaeLearning_c97838e8b94b-db-table-ele_vw_lwsessions.table.gz (80/136): adding to final database dump
0004.890 (0) backup_2019-03-16-0528_DharmaeLearning_c97838e8b94b-db-table-ele_vw_sessions.table.gz (81/136): adding to final database dump
0004.893 (0) backup_2019-03-16-0528_DharmaeLearning_c97838e8b94b-db-table-ele_wfBadLeechers.table.gz (82/136): adding to final database dump
0004.895 (0) backup_2019-03-16-0528_DharmaeLearning_c97838e8b94b-db-table-ele_wfBlockedCommentLog.table.gz (83/136): adding to final database dump
0004.898 (0) backup_2019-03-16-0528_DharmaeLearning_c97838e8b94b-db-table-ele_wfBlockedIPLog.table.gz (84/136): adding to final database dump
0004.908 (0) backup_2019-03-16-0528_DharmaeLearning_c97838e8b94b-db-table-ele_wfBlocks.table.gz (85/136): adding to final database dump
0004.912 (0) backup_2019-03-16-0528_DharmaeLearning_c97838e8b94b-db-table-ele_wfBlocksAdv.table.gz (86/136): adding to final database dump
0004.915 (0) backup_2019-03-16-0528_DharmaeLearning_c97838e8b94b-db-table-ele_wfConfig.table.gz (87/136): adding to final database dump
0005.037 (0) backup_2019-03-16-0528_DharmaeLearning_c97838e8b94b-db-table-ele_wfCrawlers.table.gz (88/136): adding to final database dump
0005.041 (0) backup_2019-03-16-0528_DharmaeLearning_c97838e8b94b-db-table-ele_wfFileMods.table.gz (89/136): adding to final database dump
0005.175 (0) backup_2019-03-16-0528_DharmaeLearning_c97838e8b94b-db-table-ele_wfHits.table.gz (90/136): adding to final database dump
0005.195 (0) backup_2019-03-16-0528_DharmaeLearning_c97838e8b94b-db-table-ele_wfHoover.table.gz (91/136): adding to final database dump
0005.198 (0) backup_2019-03-16-0528_DharmaeLearning_c97838e8b94b-db-table-ele_wfIssues.table.gz (92/136): adding to final database dump
0005.200 (0) backup_2019-03-16-0528_DharmaeLearning_c97838e8b94b-db-table-ele_wfKnownFileList.table.gz (93/136): adding to final database dump
0005.260 (0) backup_2019-03-16-0528_DharmaeLearning_c97838e8b94b-db-table-ele_wfLeechers.table.gz (94/136): adding to final database dump
0005.266 (0) backup_2019-03-16-0528_DharmaeLearning_c97838e8b94b-db-table-ele_wfLockedOut.table.gz (95/136): adding to final database dump
0005.269 (0) backup_2019-03-16-0528_DharmaeLearning_c97838e8b94b-db-table-ele_wfLocs.table.gz (96/136): adding to final database dump
0005.272 (0) backup_2019-03-16-0528_DharmaeLearning_c97838e8b94b-db-table-ele_wfLogins.table.gz (97/136): adding to final database dump
0005.281 (0) backup_2019-03-16-0528_DharmaeLearning_c97838e8b94b-db-table-ele_wfNet404s.table.gz (98/136): adding to final database dump
0005.283 (0) backup_2019-03-16-0528_DharmaeLearning_c97838e8b94b-db-table-ele_wfNotifications.table.gz (99/136): adding to final database dump
0005.289 (0) backup_2019-03-16-0528_DharmaeLearning_c97838e8b94b-db-table-ele_wfPendingIssues.table.gz (100/136): adding to final database dump
0005.295 (0) backup_2019-03-16-0528_DharmaeLearning_c97838e8b94b-db-table-ele_wfReverseCache.table.gz (101/136): adding to final database dump
0005.312 (0) backup_2019-03-16-0528_DharmaeLearning_c97838e8b94b-db-table-ele_wfSNIPCache.table.gz (102/136): adding to final database dump
0005.314 (0) backup_2019-03-16-0528_DharmaeLearning_c97838e8b94b-db-table-ele_wfScanners.table.gz (103/136): adding to final database dump
0005.317 (0) backup_2019-03-16-0528_DharmaeLearning_c97838e8b94b-db-table-ele_wfStatus.table.gz (104/136): adding to final database dump
0005.323 (0) backup_2019-03-16-0528_DharmaeLearning_c97838e8b94b-db-table-ele_wfThrottleLog.table.gz (105/136): adding to final database dump
0005.326 (0) backup_2019-03-16-0528_DharmaeLearning_c97838e8b94b-db-table-ele_wfVulnScanners.table.gz (106/136): adding to final database dump
0005.329 (0) backup_2019-03-16-0528_DharmaeLearning_c97838e8b94b-db-table-ele_woocommerce_attribute_taxonomies.table.gz (107/136): adding to final database dump
0005.331 (0) backup_2019-03-16-0528_DharmaeLearning_c97838e8b94b-db-table-ele_woocommerce_downloadable_product_permissions.table.gz (108/136): adding to final database dump
0005.334 (0) backup_2019-03-16-0528_DharmaeLearning_c97838e8b94b-db-table-ele_woocommerce_order_items.table.gz (109/136): adding to final database dump
0005.338 (0) backup_2019-03-16-0528_DharmaeLearning_c97838e8b94b-db-table-ele_woocommerce_tax_rate_locations.table.gz (110/136): adding to final database dump
0005.341 (0) backup_2019-03-16-0528_DharmaeLearning_c97838e8b94b-db-table-ele_woocommerce_tax_rates.table.gz (111/136): adding to final database dump
0005.344 (0) backup_2019-03-16-0528_DharmaeLearning_c97838e8b94b-db-table-ele_wp_pro_quiz_category.table.gz (112/136): adding to final database dump
0005.348 (0) backup_2019-03-16-0528_DharmaeLearning_c97838e8b94b-db-table-ele_wp_pro_quiz_form.table.gz (113/136): adding to final database dump
0005.350 (0) backup_2019-03-16-0528_DharmaeLearning_c97838e8b94b-db-table-ele_wp_pro_quiz_lock.table.gz (114/136): adding to final database dump
0005.353 (0) backup_2019-03-16-0528_DharmaeLearning_c97838e8b94b-db-table-ele_wp_pro_quiz_master.table.gz (115/136): adding to final database dump
0005.356 (0) backup_2019-03-16-0528_DharmaeLearning_c97838e8b94b-db-table-ele_wp_pro_quiz_prerequisite.table.gz (116/136): adding to final database dump
0005.359 (0) backup_2019-03-16-0528_DharmaeLearning_c97838e8b94b-db-table-ele_wp_pro_quiz_question.table.gz (117/136): adding to final database dump
0005.362 (0) backup_2019-03-16-0528_DharmaeLearning_c97838e8b94b-db-table-ele_wp_pro_quiz_statistic.table.gz (118/136): adding to final database dump
0005.364 (0) backup_2019-03-16-0528_DharmaeLearning_c97838e8b94b-db-table-ele_wp_pro_quiz_statistic_ref.table.gz (119/136): adding to final database dump
0005.368 (0) backup_2019-03-16-0528_DharmaeLearning_c97838e8b94b-db-table-ele_wp_pro_quiz_template.table.gz (120/136): adding to final database dump
0005.370 (0) backup_2019-03-16-0528_DharmaeLearning_c97838e8b94b-db-table-ele_wp_pro_quiz_toplist.table.gz (121/136): adding to final database dump
0005.373 (0) backup_2019-03-16-0528_DharmaeLearning_c97838e8b94b-db-table-ele_wpfront_ure_options.table.gz (122/136): adding to final database dump
0005.375 (0) backup_2019-03-16-0528_DharmaeLearning_c97838e8b94b-db-table-ele_wsal_metadata.table.gz (123/136): adding to final database dump
0005.379 (0) backup_2019-03-16-0528_DharmaeLearning_c97838e8b94b-db-table-ele_wsal_occurrences.table.gz (124/136): adding to final database dump
0005.381 (0) backup_2019-03-16-0528_DharmaeLearning_c97838e8b94b-db-table-ele_yop2_poll_answermeta.table.gz (125/136): adding to final database dump
0005.384 (0) backup_2019-03-16-0528_DharmaeLearning_c97838e8b94b-db-table-ele_yop2_poll_answers.table.gz (126/136): adding to final database dump
0005.386 (0) backup_2019-03-16-0528_DharmaeLearning_c97838e8b94b-db-table-ele_yop2_poll_bans.table.gz (127/136): adding to final database dump
0005.389 (0) backup_2019-03-16-0528_DharmaeLearning_c97838e8b94b-db-table-ele_yop2_poll_custom_fields.table.gz (128/136): adding to final database dump
0005.392 (0) backup_2019-03-16-0528_DharmaeLearning_c97838e8b94b-db-table-ele_yop2_poll_logs.table.gz (129/136): adding to final database dump
0005.395 (0) backup_2019-03-16-0528_DharmaeLearning_c97838e8b94b-db-table-ele_yop2_poll_questionmeta.table.gz (130/136): adding to final database dump
0005.398 (0) backup_2019-03-16-0528_DharmaeLearning_c97838e8b94b-db-table-ele_yop2_poll_questions.table.gz (131/136): adding to final database dump
0005.400 (0) backup_2019-03-16-0528_DharmaeLearning_c97838e8b94b-db-table-ele_yop2_poll_results.table.gz (132/136): adding to final database dump
0005.403 (0) backup_2019-03-16-0528_DharmaeLearning_c97838e8b94b-db-table-ele_yop2_poll_templates.table.gz (133/136): adding to final database dump
0005.409 (0) backup_2019-03-16-0528_DharmaeLearning_c97838e8b94b-db-table-ele_yop2_poll_votes_custom_fields.table.gz (134/136): adding to final database dump
0005.412 (0) backup_2019-03-16-0528_DharmaeLearning_c97838e8b94b-db-table-ele_yop2_pollmeta.table.gz (135/136): adding to final database dump
0005.414 (0) backup_2019-03-16-0528_DharmaeLearning_c97838e8b94b-db-table-ele_yop2_polls.table.gz (136/136): adding to final database dump
0005.417 (0) backup_2019-03-16-0528_DharmaeLearning_c97838e8b94b-db.gz: finished writing out complete database file (3568 Kb)
0005.445 (0) Total database tables backed up: 136 (backup_2019-03-16-0528_DharmaeLearning_c97838e8b94b-db.gz, size: 3676885, checksum (SHA1): fa16a0f71eda9d4dbe0db4d911bac4f74724d7c1)
0005.451 (0) Saving backup history
0005.469 (0) backup_2019-03-16-0528_DharmaeLearning_c97838e8b94b-db.gz: db: This file has not yet been successfully uploaded: will queue
0005.480 (0) Requesting upload of the files that have not yet been successfully uploaded (1)
0005.489 (0) Cloud backup selection (1/1): s3 (last)
0005.492 (0) Beginning dispatch of backup to remote (s3)
0006.667 (0) Set region: ap-southeast-1
0006.671 (0) S3 upload (ap-southeast-1): backup_2019-03-16-0528_DharmaeLearning_c97838e8b94b-db.gz (chunks: 1) -> s3://dharma.backups/backup_2019-03-16-0528_DharmaeLearning_c97838e8b94b-db.gz
0006.887 (0) S3 regular upload: success
0006.893 (0) Recording as successfully uploaded: backup_2019-03-16-0528_DharmaeLearning_c97838e8b94b-db.gz (9e51ed176238c89a1a73387d935218c4)
0006.905 (0) Deleting local file: backup_2019-03-16-0528_DharmaeLearning_c97838e8b94b-db.gz: OK
0006.911 (0) Retain: beginning examination of existing backup sets; user setting: retain_files=3, retain_db=5
0006.914 (0) Number of backup sets in history: 108
0006.917 (0) Examining backup set with datestamp: 1552685333 (Mar 15 2019 21:28:53)
0006.919 (0) 1552685333: db: this set includes a database (backup_2019-03-16-0528_DharmaeLearning_22be319469a0-db.gz); db count is now 1
0006.925 (0) 1552685333: this backup set remains non-empty (0/1); will retain in history
0006.927 (0) Examining backup set with datestamp: 1552670674 (Mar 15 2019 17:24:34)
0006.930 (0) 1552670674: db: this set includes a database (backup_2019-03-16-0124_DharmaeLearning_71e6025bc412-db.gz); db count is now 2
0006.936 (0) 1552670674: this backup set remains non-empty (0/1); will retain in history
0006.939 (0) Examining backup set with datestamp: 1552656368 (Mar 15 2019 13:26:08)
0006.941 (0) 1552656368: db: this set includes a database (backup_2019-03-15-2126_DharmaeLearning_73d0cd620c87-db.gz); db count is now 3
0006.947 (0) 1552656368: this backup set remains non-empty (0/1); will retain in history
0006.950 (0) Examining backup set with datestamp: 1552642237 (Mar 15 2019 09:30:37)
0006.953 (0) 1552642237: db: this set includes a database (backup_2019-03-15-1730_DharmaeLearning_04faf7e7366e-db.gz); db count is now 4
0006.959 (0) 1552642237: this backup set remains non-empty (0/1); will retain in history
0006.962 (0) Examining backup set with datestamp: 1552627473 (Mar 15 2019 05:24:33)
0006.965 (0) 1552627473: db: this set includes a database (backup_2019-03-15-1324_DharmaeLearning_52b45b74c8ab-db.gz); db count is now 5
0006.971 (0) 1552627473: this backup set remains non-empty (0/1); will retain in history
0006.973 (0) Examining backup set with datestamp: 1552613063 (Mar 15 2019 01:24:23)
0006.976 (0) 1552613063: db: this set includes a database (backup_2019-03-15-0924_DharmaeLearning_f02c8832b69e-db.gz); db count is now 6
0006.979 (0) 1552613063: db: over retain limit (5); will delete this database
0006.982 (0) Delete file: backup_2019-03-15-0924_DharmaeLearning_f02c8832b69e-db.gz, service=s3
0006.985 (0) S3: Delete remote: bucket=dharma.backups, URI=backup_2019-03-15-0924_DharmaeLearning_f02c8832b69e-db.gz
0007.006 (0) 1552613063: this backup set is now empty; will remove from history
0007.009 (0) 1552613063: deleting log file (log.f02c8832b69e.txt)
0007.012 (0) Examining backup set with datestamp: 1552454131 (Mar 13 2019 05:15:31)
0007.018 (0) 1552454131: this backup set remains non-empty (1/0); will retain in history
0007.020 (0) Examining backup set with datestamp: 1551849594 (Mar 06 2019 05:19:54)
0007.026 (0) 1551849594: this backup set remains non-empty (1/0); will retain in history
0007.028 (0) Examining backup set with datestamp: 1551244687 (Feb 27 2019 05:18:07)
0007.033 (0) 1551244687: this backup set remains non-empty (1/0); will retain in history
0007.036 (0) Examining backup set with datestamp: 1480055580 (Nov 25 2016 06:33:00)
0007.038 (0) This backup set (1480055580) was imported from remote storage, so will not be counted or pruned. Skipping.
0007.041 (0) Examining backup set with datestamp: 1480055340 (Nov 25 2016 06:29:00)
0007.044 (0) This backup set (1480055340) was imported from remote storage, so will not be counted or pruned. Skipping.
0007.047 (0) Examining backup set with datestamp: 1480055100 (Nov 25 2016 06:25:00)
0007.050 (0) This backup set (1480055100) was imported from remote storage, so will not be counted or pruned. Skipping.
0007.052 (0) Examining backup set with datestamp: 1480054860 (Nov 25 2016 06:21:00)
0007.055 (0) This backup set (1480054860) was imported from remote storage, so will not be counted or pruned. Skipping.
0007.058 (0) Examining backup set with datestamp: 1480054500 (Nov 25 2016 06:15:00)
0007.061 (0) This backup set (1480054500) was imported from remote storage, so will not be counted or pruned. Skipping.
0007.063 (0) Examining backup set with datestamp: 1480053900 (Nov 25 2016 06:05:00)
0007.066 (0) This backup set (1480053900) was imported from remote storage, so will not be counted or pruned. Skipping.
0007.069 (0) Examining backup set with datestamp: 1480043040 (Nov 25 2016 03:04:00)
0007.072 (0) This backup set (1480043040) was imported from remote storage, so will not be counted or pruned. Skipping.
0007.074 (0) Examining backup set with datestamp: 1480042680 (Nov 25 2016 02:58:00)
0007.077 (0) This backup set (1480042680) was imported from remote storage, so will not be counted or pruned. Skipping.
0007.080 (0) Examining backup set with datestamp: 1479974760 (Nov 24 2016 08:06:00)
0007.082 (0) This backup set (1479974760) was imported from remote storage, so will not be counted or pruned. Skipping.
0007.085 (0) Examining backup set with datestamp: 1479940080 (Nov 23 2016 22:28:00)
0007.088 (0) This backup set (1479940080) was imported from remote storage, so will not be counted or pruned. Skipping.
0007.090 (0) Examining backup set with datestamp: 1479909720 (Nov 23 2016 14:02:00)
0007.093 (0) This backup set (1479909720) was imported from remote storage, so will not be counted or pruned. Skipping.
0007.095 (0) Examining backup set with datestamp: 1479881040 (Nov 23 2016 06:04:00)
0007.098 (0) This backup set (1479881040) was imported from remote storage, so will not be counted or pruned. Skipping.
0007.104 (0) Examining backup set with datestamp: 1479853320 (Nov 22 2016 22:22:00)
0007.108 (0) This backup set (1479853320) was imported from remote storage, so will not be counted or pruned. Skipping.
0007.112 (0) Examining backup set with datestamp: 1479841020 (Nov 22 2016 18:57:00)
0007.117 (0) This backup set (1479841020) was imported from remote storage, so will not be counted or pruned. Skipping.
0007.120 (0) Examining backup set with datestamp: 1479830520 (Nov 22 2016 16:02:00)
0007.123 (0) This backup set (1479830520) was imported from remote storage, so will not be counted or pruned. Skipping.
0007.125 (0) Examining backup set with datestamp: 1479814080 (Nov 22 2016 11:28:00)
0007.128 (0) This backup set (1479814080) was imported from remote storage, so will not be counted or pruned. Skipping.
0007.132 (0) Examining backup set with datestamp: 1477642200 (Oct 28 2016 08:10:00)
0007.137 (0) This backup set (1477642200) was imported from remote storage, so will not be counted or pruned. Skipping.
0007.139 (0) Examining backup set with datestamp: 1477540080 (Oct 27 2016 03:48:00)
0007.144 (0) This backup set (1477540080) was imported from remote storage, so will not be counted or pruned. Skipping.
0007.147 (0) Examining backup set with datestamp: 1477535040 (Oct 27 2016 02:24:00)
0007.150 (0) This backup set (1477535040) was imported from remote storage, so will not be counted or pruned. Skipping.
0007.152 (0) Examining backup set with datestamp: 1477533240 (Oct 27 2016 01:54:00)
0007.155 (0) This backup set (1477533240) was imported from remote storage, so will not be counted or pruned. Skipping.
0007.158 (0) Examining backup set with datestamp: 1477533180 (Oct 27 2016 01:53:00)
0007.160 (0) This backup set (1477533180) was imported from remote storage, so will not be counted or pruned. Skipping.
0007.163 (0) Examining backup set with datestamp: 1477473900 (Oct 26 2016 09:25:00)
0007.165 (0) This backup set (1477473900) was imported from remote storage, so will not be counted or pruned. Skipping.
0007.168 (0) Examining backup set with datestamp: 1477473300 (Oct 26 2016 09:15:00)
0007.171 (0) This backup set (1477473300) was imported from remote storage, so will not be counted or pruned. Skipping.
0007.173 (0) Examining backup set with datestamp: 1477473240 (Oct 26 2016 09:14:00)
0007.176 (0) This backup set (1477473240) was imported from remote storage, so will not be counted or pruned. Skipping.
0007.179 (0) Examining backup set with datestamp: 1477472580 (Oct 26 2016 09:03:00)
0007.182 (0) This backup set (1477472580) was imported from remote storage, so will not be counted or pruned. Skipping.
0007.184 (0) Examining backup set with datestamp: 1477454880 (Oct 26 2016 04:08:00)
0007.187 (0) This backup set (1477454880) was imported from remote storage, so will not be counted or pruned. Skipping.
0007.189 (0) Examining backup set with datestamp: 1477381140 (Oct 25 2016 07:39:00)
0007.192 (0) This backup set (1477381140) was imported from remote storage, so will not be counted or pruned. Skipping.
0007.194 (0) Examining backup set with datestamp: 1477366080 (Oct 25 2016 03:28:00)
0007.197 (0) This backup set (1477366080) was imported from remote storage, so will not be counted or pruned. Skipping.
0007.199 (0) Examining backup set with datestamp: 1477294920 (Oct 24 2016 07:42:00)
0007.202 (0) This backup set (1477294920) was imported from remote storage, so will not be counted or pruned. Skipping.
0007.205 (0) Examining backup set with datestamp: 1474704540 (Sep 24 2016 08:09:00)
0007.208 (0) This backup set (1474704540) was imported from remote storage, so will not be counted or pruned. Skipping.
0007.210 (0) Examining backup set with datestamp: 1458725280 (Mar 23 2016 09:28:00)
0007.213 (0) This backup set (1458725280) was imported from remote storage, so will not be counted or pruned. Skipping.
0007.215 (0) Examining backup set with datestamp: 1458715320 (Mar 23 2016 06:42:00)
0007.218 (0) This backup set (1458715320) was imported from remote storage, so will not be counted or pruned. Skipping.
0007.221 (0) Examining backup set with datestamp: 1458715200 (Mar 23 2016 06:40:00)
0007.224 (0) This backup set (1458715200) was imported from remote storage, so will not be counted or pruned. Skipping.
0007.226 (0) Examining backup set with datestamp: 1458546540 (Mar 21 2016 07:49:00)
0007.229 (0) This backup set (1458546540) was imported from remote storage, so will not be counted or pruned. Skipping.
0007.232 (0) Examining backup set with datestamp: 1458546480 (Mar 21 2016 07:48:00)
0007.235 (0) This backup set (1458546480) was imported from remote storage, so will not be counted or pruned. Skipping.
0007.237 (0) Examining backup set with datestamp: 1458094980 (Mar 16 2016 02:23:00)
0007.240 (0) This backup set (1458094980) was imported from remote storage, so will not be counted or pruned. Skipping.
0007.242 (0) Examining backup set with datestamp: 1458094680 (Mar 16 2016 02:18:00)
0007.245 (0) This backup set (1458094680) was imported from remote storage, so will not be counted or pruned. Skipping.
0007.248 (0) Examining backup set with datestamp: 1458094620 (Mar 16 2016 02:17:00)
0007.250 (0) This backup set (1458094620) was imported from remote storage, so will not be counted or pruned. Skipping.
0007.253 (0) Examining backup set with datestamp: 1458033840 (Mar 15 2016 09:24:00)
0007.255 (0) This backup set (1458033840) was imported from remote storage, so will not be counted or pruned. Skipping.
0007.258 (0) Examining backup set with datestamp: 1458027360 (Mar 15 2016 07:36:00)
0007.260 (0) This backup set (1458027360) was imported from remote storage, so will not be counted or pruned. Skipping.
0007.263 (0) Examining backup set with datestamp: 1458022080 (Mar 15 2016 06:08:00)
0007.266 (0) This backup set (1458022080) was imported from remote storage, so will not be counted or pruned. Skipping.
0007.269 (0) Examining backup set with datestamp: 1458017820 (Mar 15 2016 04:57:00)
0007.272 (0) This backup set (1458017820) was imported from remote storage, so will not be counted or pruned. Skipping.
0007.275 (0) Examining backup set with datestamp: 1458017700 (Mar 15 2016 04:55:00)
0007.278 (0) This backup set (1458017700) was imported from remote storage, so will not be counted or pruned. Skipping.
0007.281 (0) Examining backup set with datestamp: 1458016260 (Mar 15 2016 04:31:00)
0007.284 (0) This backup set (1458016260) was imported from remote storage, so will not be counted or pruned. Skipping.
0007.287 (0) Examining backup set with datestamp: 1457574300 (Mar 10 2016 01:45:00)
0007.289 (0) This backup set (1457574300) was imported from remote storage, so will not be counted or pruned. Skipping.
0007.292 (0) Examining backup set with datestamp: 1456206660 (Feb 23 2016 05:51:00)
0007.295 (0) This backup set (1456206660) was imported from remote storage, so will not be counted or pruned. Skipping.
0007.297 (0) Examining backup set with datestamp: 1456194240 (Feb 23 2016 02:24:00)
0007.300 (0) This backup set (1456194240) was imported from remote storage, so will not be counted or pruned. Skipping.
0007.302 (0) Examining backup set with datestamp: 1456192440 (Feb 23 2016 01:54:00)
0007.305 (0) This backup set (1456192440) was imported from remote storage, so will not be counted or pruned. Skipping.
0007.308 (0) Examining backup set with datestamp: 1456192380 (Feb 23 2016 01:53:00)
0007.310 (0) This backup set (1456192380) was imported from remote storage, so will not be counted or pruned. Skipping.
0007.313 (0) Examining backup set with datestamp: 1456133220 (Feb 22 2016 09:27:00)
0007.316 (0) This backup set (1456133220) was imported from remote storage, so will not be counted or pruned. Skipping.
0007.319 (0) Examining backup set with datestamp: 1456125000 (Feb 22 2016 07:10:00)
0007.321 (0) This backup set (1456125000) was imported from remote storage, so will not be counted or pruned. Skipping.
0007.324 (0) Examining backup set with datestamp: 1456109100 (Feb 22 2016 02:45:00)
0007.327 (0) This backup set (1456109100) was imported from remote storage, so will not be counted or pruned. Skipping.
0007.329 (0) Examining backup set with datestamp: 1456108920 (Feb 22 2016 02:42:00)
0007.332 (0) This backup set (1456108920) was imported from remote storage, so will not be counted or pruned. Skipping.
0007.335 (0) Examining backup set with datestamp: 1455677700 (Feb 17 2016 02:55:00)
0007.337 (0) This backup set (1455677700) was imported from remote storage, so will not be counted or pruned. Skipping.
0007.340 (0) Examining backup set with datestamp: 1455677640 (Feb 17 2016 02:54:00)
0007.343 (0) This backup set (1455677640) was imported from remote storage, so will not be counted or pruned. Skipping.
0007.345 (0) Examining backup set with datestamp: 1454492100 (Feb 03 2016 09:35:00)
0007.348 (0) This backup set (1454492100) was imported from remote storage, so will not be counted or pruned. Skipping.
0007.351 (0) Examining backup set with datestamp: 1454481540 (Feb 03 2016 06:39:00)
0007.353 (0) This backup set (1454481540) was imported from remote storage, so will not be counted or pruned. Skipping.
0007.356 (0) Examining backup set with datestamp: 1454474700 (Feb 03 2016 04:45:00)
0007.359 (0) This backup set (1454474700) was imported from remote storage, so will not be counted or pruned. Skipping.
0007.362 (0) Examining backup set with datestamp: 1454474520 (Feb 03 2016 04:42:00)
0007.364 (0) This backup set (1454474520) was imported from remote storage, so will not be counted or pruned. Skipping.
0007.367 (0) Examining backup set with datestamp: 1454474400 (Feb 03 2016 04:40:00)
0007.370 (0) This backup set (1454474400) was imported from remote storage, so will not be counted or pruned. Skipping.
0007.372 (0) Examining backup set with datestamp: 1454473140 (Feb 03 2016 04:19:00)
0007.375 (0) This backup set (1454473140) was imported from remote storage, so will not be counted or pruned. Skipping.
0007.378 (0) Examining backup set with datestamp: 1454473080 (Feb 03 2016 04:18:00)
0007.380 (0) This backup set (1454473080) was imported from remote storage, so will not be counted or pruned. Skipping.
0007.383 (0) Examining backup set with datestamp: 1454309220 (Feb 01 2016 06:47:00)
0007.386 (0) This backup set (1454309220) was imported from remote storage, so will not be counted or pruned. Skipping.
0007.389 (0) Examining backup set with datestamp: 1454299920 (Feb 01 2016 04:12:00)
0007.391 (0) This backup set (1454299920) was imported from remote storage, so will not be counted or pruned. Skipping.
0007.395 (0) Examining backup set with datestamp: 1454299620 (Feb 01 2016 04:07:00)
0007.397 (0) This backup set (1454299620) was imported from remote storage, so will not be counted or pruned. Skipping.
0007.400 (0) Examining backup set with datestamp: 1454298420 (Feb 01 2016 03:47:00)
0007.403 (0) This backup set (1454298420) was imported from remote storage, so will not be counted or pruned. Skipping.
0007.405 (0) Examining backup set with datestamp: 1454298000 (Feb 01 2016 03:40:00)
0007.408 (0) This backup set (1454298000) was imported from remote storage, so will not be counted or pruned. Skipping.
0007.410 (0) Examining backup set with datestamp: 1454297640 (Feb 01 2016 03:34:00)
0007.413 (0) This backup set (1454297640) was imported from remote storage, so will not be counted or pruned. Skipping.
0007.415 (0) Examining backup set with datestamp: 1454297580 (Feb 01 2016 03:33:00)
0007.418 (0) This backup set (1454297580) was imported from remote storage, so will not be counted or pruned. Skipping.
0007.420 (0) Examining backup set with datestamp: 1454146680 (Jan 30 2016 09:38:00)
0007.423 (0) This backup set (1454146680) was imported from remote storage, so will not be counted or pruned. Skipping.
0007.426 (0) Examining backup set with datestamp: 1454135700 (Jan 30 2016 06:35:00)
0007.429 (0) This backup set (1454135700) was imported from remote storage, so will not be counted or pruned. Skipping.
0007.431 (0) Examining backup set with datestamp: 1454128920 (Jan 30 2016 04:42:00)
0007.434 (0) This backup set (1454128920) was imported from remote storage, so will not be counted or pruned. Skipping.
0007.436 (0) Examining backup set with datestamp: 1454128200 (Jan 30 2016 04:30:00)
0007.439 (0) This backup set (1454128200) was imported from remote storage, so will not be counted or pruned. Skipping.
0007.442 (0) Examining backup set with datestamp: 1454127900 (Jan 30 2016 04:25:00)
0007.444 (0) This backup set (1454127900) was imported from remote storage, so will not be counted or pruned. Skipping.
0007.447 (0) Examining backup set with datestamp: 1454122980 (Jan 30 2016 03:03:00)
0007.451 (0) This backup set (1454122980) was imported from remote storage, so will not be counted or pruned. Skipping.
0007.453 (0) Examining backup set with datestamp: 1454122860 (Jan 30 2016 03:01:00)
0007.455 (0) This backup set (1454122860) was imported from remote storage, so will not be counted or pruned. Skipping.
0007.458 (0) Examining backup set with datestamp: 1454059560 (Jan 29 2016 09:26:00)
0007.461 (0) This backup set (1454059560) was imported from remote storage, so will not be counted or pruned. Skipping.
0007.463 (0) Examining backup set with datestamp: 1454052120 (Jan 29 2016 07:22:00)
0007.466 (0) This backup set (1454052120) was imported from remote storage, so will not be counted or pruned. Skipping.
0007.469 (0) Examining backup set with datestamp: 1454052000 (Jan 29 2016 07:20:00)
0007.471 (0) This backup set (1454052000) was imported from remote storage, so will not be counted or pruned. Skipping.
0007.474 (0) Examining backup set with datestamp: 1454051820 (Jan 29 2016 07:17:00)
0007.476 (0) This backup set (1454051820) was imported from remote storage, so will not be counted or pruned. Skipping.
0007.479 (0) Examining backup set with datestamp: 1454031120 (Jan 29 2016 01:32:00)
0007.482 (0) This backup set (1454031120) was imported from remote storage, so will not be counted or pruned. Skipping.
0007.484 (0) Examining backup set with datestamp: 1454016780 (Jan 28 2016 21:33:00)
0007.487 (0) This backup set (1454016780) was imported from remote storage, so will not be counted or pruned. Skipping.
0007.489 (0) Examining backup set with datestamp: 1454002200 (Jan 28 2016 17:30:00)
0007.493 (0) This backup set (1454002200) was imported from remote storage, so will not be counted or pruned. Skipping.
0007.495 (0) Examining backup set with datestamp: 1453987860 (Jan 28 2016 13:31:00)
0007.498 (0) This backup set (1453987860) was imported from remote storage, so will not be counted or pruned. Skipping.
0007.500 (0) Examining backup set with datestamp: 1453973640 (Jan 28 2016 09:34:00)
0007.503 (0) This backup set (1453973640) was imported from remote storage, so will not be counted or pruned. Skipping.
0007.506 (0) Examining backup set with datestamp: 1453959060 (Jan 28 2016 05:31:00)
0007.509 (0) This backup set (1453959060) was imported from remote storage, so will not be counted or pruned. Skipping.
0007.511 (0) Examining backup set with datestamp: 1453944600 (Jan 28 2016 01:30:00)
0007.513 (0) This backup set (1453944600) was imported from remote storage, so will not be counted or pruned. Skipping.
0007.516 (0) Examining backup set with datestamp: 1453930380 (Jan 27 2016 21:33:00)
0007.518 (0) This backup set (1453930380) was imported from remote storage, so will not be counted or pruned. Skipping.
0007.521 (0) Examining backup set with datestamp: 1453916040 (Jan 27 2016 17:34:00)
0007.523 (0) This backup set (1453916040) was imported from remote storage, so will not be counted or pruned. Skipping.
0007.526 (0) Examining backup set with datestamp: 1453901640 (Jan 27 2016 13:34:00)
0007.529 (0) This backup set (1453901640) was imported from remote storage, so will not be counted or pruned. Skipping.
0007.531 (0) Examining backup set with datestamp: 1452585840 (Jan 12 2016 08:04:00)
0007.534 (0) This backup set (1452585840) was imported from remote storage, so will not be counted or pruned. Skipping.
0007.537 (0) Examining backup set with datestamp: 1452565560 (Jan 12 2016 02:26:00)
0007.539 (0) This backup set (1452565560) was imported from remote storage, so will not be counted or pruned. Skipping.
0007.542 (0) Examining backup set with datestamp: 1452561960 (Jan 12 2016 01:26:00)
0007.544 (0) This backup set (1452561960) was imported from remote storage, so will not be counted or pruned. Skipping.
0007.547 (0) Examining backup set with datestamp: 1452547680 (Jan 11 2016 21:28:00)
0007.550 (0) This backup set (1452547680) was imported from remote storage, so will not be counted or pruned. Skipping.
0007.552 (0) Examining backup set with datestamp: 1452533100 (Jan 11 2016 17:25:00)
0007.555 (0) This backup set (1452533100) was imported from remote storage, so will not be counted or pruned. Skipping.
0007.558 (0) Examining backup set with datestamp: 1452522300 (Jan 11 2016 14:25:00)
0007.560 (0) This backup set (1452522300) was imported from remote storage, so will not be counted or pruned. Skipping.
0007.563 (0) Examining backup set with datestamp: 1452518880 (Jan 11 2016 13:28:00)
0007.567 (0) This backup set (1452518880) was imported from remote storage, so will not be counted or pruned. Skipping.
0007.569 (0) Examining backup set with datestamp: 1452479100 (Jan 11 2016 02:25:00)
0007.572 (0) This backup set (1452479100) was imported from remote storage, so will not be counted or pruned. Skipping.
0007.577 (0) Examining backup set with datestamp: 1449541800 (Dec 08 2015 02:30:00)
0007.580 (0) This backup set (1449541800) was imported from remote storage, so will not be counted or pruned. Skipping.
0007.582 (0) Retain: saving new backup history (sets now: 107) and finishing retain operation
0007.592 (0) Resume backup (c97838e8b94b, 0): finish run
0007.599 (0) Decremented the semaphore (d) by 1
0007.603 (0) Semaphore (d) unlocked
0007.606 (0) There were no errors in the uploads, so the 'resume' event (1) is being unscheduled
0007.617 (0) Fetching RSS news feed
0007.646 (0) Fetched RSS news feed; result is a: SimplePie
0007.650 (0) Sending email ('Database only (files were not part of this particular schedule)') report (attachments: 0, size: 0 Kb) to: admin...
0007.750 (0) The backup apparently succeeded and is now complete
